<svg width="22" height="22" viewBox="0 0 22 22" fill="none" xmlns="http://www.w3.org/2000/svg">
<path d="M10.9997 20.1666C16.0623 20.1666 20.1663 16.0626 20.1663 11C20.1663 5.93737 16.0623 1.83331 10.9997 1.83331C5.93706 1.83331 1.83301 5.93737 1.83301 11C1.83301 16.0626 5.93706 20.1666 10.9997 20.1666Z" fill="#E4E9ED"/>
<path d="M14.6945 10.5142L11.9445 7.76419C11.6787 7.49836 11.2387 7.49836 10.9728 7.76419C10.707 8.03003 10.707 8.47003 10.9728 8.73586L12.5495 10.3125H7.79199C7.41616 10.3125 7.10449 10.6242 7.10449 11C7.10449 11.3759 7.41616 11.6875 7.79199 11.6875H12.5495L10.9728 13.2642C10.707 13.53 10.707 13.97 10.9728 14.2359C11.1103 14.3734 11.2845 14.4375 11.4587 14.4375C11.6328 14.4375 11.807 14.3734 11.9445 14.2359L14.6945 11.4859C14.9603 11.22 14.9603 10.78 14.6945 10.5142Z" fill="#0F0F11"/>
</svg>
