<svg width="1440" height="1024" viewBox="0 0 1440 1024" fill="none" xmlns="http://www.w3.org/2000/svg">
<rect width="1440" height="1024" fill="#0F0F11"/>
<circle cx="850.682" cy="530.682" r="0.681502" fill="white" fill-opacity="0.5"/>
<circle cx="441.161" cy="761.161" r="1.16151" fill="white" fill-opacity="0.4"/>
<circle cx="1055.32" cy="732.319" r="1.31891" fill="white" fill-opacity="0.5"/>
<circle cx="992.463" cy="495.463" r="1.4627" fill="white" fill-opacity="0.3"/>
<circle cx="1064.47" cy="628.472" r="1.47233" fill="white" fill-opacity="0.5"/>
<circle cx="1375.34" cy="859.338" r="1.33771" fill="white" fill-opacity="0.5"/>
<circle cx="768.227" cy="129.227" r="1.22695" fill="white" fill-opacity="0.4"/>
<circle cx="655.315" cy="887.315" r="1.31516" fill="white" fill-opacity="0.6"/>
<circle cx="630.684" cy="290.684" r="0.683957" fill="white" fill-opacity="0.3"/>
<circle cx="1225.99" cy="653.994" r="0.993532" fill="white" fill-opacity="0.6"/>
<circle cx="936.865" cy="800.865" r="0.86514" fill="white" fill-opacity="0.6"/>
<circle cx="217.794" cy="873.794" r="0.794207" fill="white" fill-opacity="0.3"/>
<circle cx="457.631" cy="406.631" r="0.630916" fill="white" fill-opacity="0.5"/>
<circle cx="259.519" cy="337.519" r="0.51868" fill="white" fill-opacity="0.3"/>
<circle cx="102.284" cy="666.284" r="1.28443" fill="white" fill-opacity="0.5"/>
<circle cx="311.979" cy="213.979" r="0.978722" fill="white" fill-opacity="0.5"/>
<circle cx="1010.68" cy="619.684" r="0.684458" fill="white" fill-opacity="0.4"/>
<circle cx="226.208" cy="386.208" r="1.20847" fill="white" fill-opacity="0.3"/>
<circle cx="1178.2" cy="641.203" r="1.20318" fill="white" fill-opacity="0.6"/>
<circle cx="948.926" cy="395.926" r="0.925822" fill="white" fill-opacity="0.5"/>
<circle cx="1378.46" cy="893.465" r="1.46496" fill="white" fill-opacity="0.5"/>
<circle cx="538.992" cy="315.992" r="0.991959" fill="white" fill-opacity="0.4"/>
<circle cx="860.452" cy="661.452" r="1.45243" fill="white" fill-opacity="0.3"/>
<circle cx="1140.25" cy="984.246" r="1.24561" fill="white" fill-opacity="0.4"/>
<circle cx="1104.23" cy="972.227" r="1.2268" fill="white" fill-opacity="0.3"/>
<circle cx="777.953" cy="143.953" r="0.952902" fill="white" fill-opacity="0.4"/>
<circle cx="753.41" cy="333.41" r="1.40984" fill="white" fill-opacity="0.3"/>
<circle cx="1351.58" cy="118.576" r="0.576493" fill="white" fill-opacity="0.3"/>
<circle cx="278.145" cy="619.145" r="1.14542" fill="white" fill-opacity="0.4"/>
<circle cx="128.728" cy="256.728" r="0.727592" fill="white" fill-opacity="0.4"/>
<circle cx="232.291" cy="228.291" r="1.29071" fill="white" fill-opacity="0.5"/>
<circle cx="846.125" cy="208.125" r="1.12454" fill="white" fill-opacity="0.3"/>
<circle cx="1015.17" cy="603.166" r="1.16574" fill="white" fill-opacity="0.4"/>
<circle cx="1320.2" cy="413.199" r="1.19944" fill="white" fill-opacity="0.4"/>
<circle cx="1321.26" cy="103.264" r="1.26377" fill="white" fill-opacity="0.3"/>
<circle cx="199.642" cy="714.642" r="0.642152" fill="white" fill-opacity="0.3"/>
<circle cx="874.327" cy="345.327" r="1.32673" fill="white" fill-opacity="0.6"/>
<circle cx="351.853" cy="228.853" r="0.852526" fill="white" fill-opacity="0.3"/>
<circle cx="773.073" cy="260.073" r="1.07348" fill="white" fill-opacity="0.4"/>
<circle cx="401.357" cy="65.3568" r="1.35676" fill="white" fill-opacity="0.5"/>
<circle cx="445.3" cy="227.3" r="1.30012" fill="white" fill-opacity="0.6"/>
<circle cx="339.548" cy="582.549" r="0.548506" fill="white" fill-opacity="0.4"/>
<circle cx="824.033" cy="591.033" r="1.03323" fill="white" fill-opacity="0.4"/>
<circle cx="551.878" cy="301.878" r="0.87786" fill="white" fill-opacity="0.6"/>
<circle cx="1266.98" cy="736.982" r="0.98248" fill="white" fill-opacity="0.5"/>
<circle cx="736.194" cy="578.194" r="1.19397" fill="white" fill-opacity="0.4"/>
<circle cx="511.292" cy="491.292" r="1.29151" fill="white" fill-opacity="0.3"/>
<circle cx="1072.15" cy="48.1503" r="1.15027" fill="white" fill-opacity="0.5"/>
<circle cx="1343.64" cy="1022.64" r="0.635659" fill="white" fill-opacity="0.6"/>
<circle cx="761.004" cy="48.0036" r="1.00363" fill="white" fill-opacity="0.5"/>
<circle cx="1323.87" cy="622.872" r="0.871949" fill="white" fill-opacity="0.6"/>
<circle cx="379.607" cy="921.607" r="0.607411" fill="white" fill-opacity="0.5"/>
<circle cx="10.2828" cy="27.2828" r="1.2828" fill="white" fill-opacity="0.3"/>
<circle cx="1360.62" cy="596.618" r="0.617933" fill="white" fill-opacity="0.5"/>
<circle cx="884.66" cy="346.66" r="0.660093" fill="white" fill-opacity="0.4"/>
<circle cx="811.819" cy="501.819" r="0.818707" fill="white" fill-opacity="0.4"/>
<circle cx="1205.85" cy="637.846" r="0.846142" fill="white" fill-opacity="0.4"/>
<circle cx="161.288" cy="886.288" r="1.2876" fill="white" fill-opacity="0.4"/>
<circle cx="268.462" cy="167.462" r="1.46234" fill="white" fill-opacity="0.5"/>
<circle cx="304.088" cy="311.088" r="1.08758" fill="white" fill-opacity="0.5"/>
<circle cx="1314.98" cy="672.977" r="0.976755" fill="white" fill-opacity="0.3"/>
<circle cx="986.873" cy="325.873" r="0.873367" fill="white" fill-opacity="0.3"/>
<circle cx="1089.96" cy="1002.96" r="0.958811" fill="white" fill-opacity="0.6"/>
<circle cx="995.833" cy="963.833" r="0.833404" fill="white" fill-opacity="0.6"/>
<circle cx="680.702" cy="274.702" r="0.702199" fill="white" fill-opacity="0.5"/>
<circle cx="760.47" cy="634.47" r="1.46993" fill="white" fill-opacity="0.4"/>
<circle cx="605.328" cy="597.328" r="1.32761" fill="white" fill-opacity="0.4"/>
<circle cx="343.245" cy="189.245" r="1.24508" fill="white" fill-opacity="0.5"/>
<circle cx="374.118" cy="780.118" r="1.1179" fill="white" fill-opacity="0.5"/>
<circle cx="1347.54" cy="213.539" r="0.538711" fill="white" fill-opacity="0.6"/>
<circle cx="390.29" cy="553.29" r="1.29038" fill="white" fill-opacity="0.5"/>
<circle cx="814.154" cy="599.154" r="1.15416" fill="white" fill-opacity="0.4"/>
<circle cx="602.87" cy="758.87" r="0.869535" fill="white" fill-opacity="0.3"/>
<circle cx="288.762" cy="649.762" r="0.761616" fill="white" fill-opacity="0.5"/>
<circle cx="558.016" cy="583.016" r="1.01615" fill="white" fill-opacity="0.4"/>
<circle cx="257.892" cy="875.892" r="0.892269" fill="white" fill-opacity="0.3"/>
<circle cx="225.429" cy="171.429" r="1.42928" fill="white" fill-opacity="0.5"/>
<circle cx="631.442" cy="877.442" r="1.4422" fill="white" fill-opacity="0.4"/>
<circle cx="755.033" cy="567.033" r="1.03263" fill="white" fill-opacity="0.4"/>
<circle cx="462.08" cy="10.0803" r="1.08028" fill="white" fill-opacity="0.6"/>
<circle cx="812.857" cy="124.857" r="0.857024" fill="white" fill-opacity="0.4"/>
<circle cx="988.176" cy="390.176" r="1.17585" fill="white" fill-opacity="0.5"/>
<circle cx="631.08" cy="878.08" r="1.07984" fill="white" fill-opacity="0.6"/>
<circle cx="708.94" cy="555.94" r="0.939519" fill="white" fill-opacity="0.4"/>
<circle cx="813.934" cy="552.934" r="0.934167" fill="white" fill-opacity="0.4"/>
<circle cx="528.296" cy="117.296" r="1.2963" fill="white" fill-opacity="0.5"/>
<circle cx="820.135" cy="631.135" r="1.13483" fill="white" fill-opacity="0.5"/>
<circle cx="52.2449" cy="93.2449" r="1.24485" fill="white" fill-opacity="0.6"/>
<circle cx="779.951" cy="264.951" r="0.950669" fill="white" fill-opacity="0.4"/>
<circle cx="1362.32" cy="892.319" r="1.31948" fill="white" fill-opacity="0.4"/>
<circle cx="1049.43" cy="165.426" r="1.42645" fill="white" fill-opacity="0.4"/>
<circle cx="479.038" cy="828.037" r="1.0375" fill="white" fill-opacity="0.3"/>
<circle cx="1139.74" cy="510.74" r="0.740178" fill="white" fill-opacity="0.6"/>
<circle cx="601.225" cy="811.225" r="1.22493" fill="white" fill-opacity="0.5"/>
<circle cx="683.75" cy="101.75" r="0.749526" fill="white" fill-opacity="0.3"/>
<circle cx="334.877" cy="153.877" r="0.877393" fill="white" fill-opacity="0.4"/>
<circle cx="295.75" cy="156.75" r="0.749625" fill="white" fill-opacity="0.5"/>
<circle cx="1096.28" cy="787.275" r="1.27501" fill="white" fill-opacity="0.3"/>
<circle cx="461.297" cy="481.297" r="1.29678" fill="white" fill-opacity="0.4"/>
<circle cx="422.308" cy="484.308" r="1.3077" fill="white" fill-opacity="0.4"/>
<circle cx="450.69" cy="893.69" r="0.690457" fill="white" fill-opacity="0.5"/>
<circle cx="413.416" cy="300.416" r="1.41648" fill="white" fill-opacity="0.5"/>
<circle cx="1062.08" cy="477.076" r="1.07586" fill="white" fill-opacity="0.4"/>
<circle cx="9.69555" cy="334.696" r="0.695552" fill="white" fill-opacity="0.6"/>
<circle cx="32.7671" cy="427.767" r="0.767062" fill="white" fill-opacity="0.3"/>
<circle cx="1338.97" cy="398.975" r="0.974941" fill="white" fill-opacity="0.4"/>
<circle cx="399.965" cy="718.965" r="0.964769" fill="white" fill-opacity="0.4"/>
<circle cx="897.713" cy="761.713" r="0.713189" fill="white" fill-opacity="0.5"/>
<circle cx="259.932" cy="921.932" r="0.932429" fill="white" fill-opacity="0.6"/>
<circle cx="934.529" cy="1000.53" r="0.529152" fill="white" fill-opacity="0.6"/>
<circle cx="50.0415" cy="377.042" r="1.04149" fill="white" fill-opacity="0.3"/>
<circle cx="224.335" cy="883.335" r="1.33527" fill="white" fill-opacity="0.6"/>
<circle cx="518.158" cy="916.158" r="1.15833" fill="white" fill-opacity="0.4"/>
<circle cx="570.793" cy="518.793" r="0.792937" fill="white" fill-opacity="0.5"/>
<circle cx="962.718" cy="354.718" r="0.717543" fill="white" fill-opacity="0.6"/>
<circle cx="1251.98" cy="375.983" r="0.983419" fill="white" fill-opacity="0.6"/>
<circle cx="905.559" cy="1021.56" r="0.558575" fill="white" fill-opacity="0.4"/>
<circle cx="542.581" cy="404.581" r="0.581069" fill="white" fill-opacity="0.6"/>
<circle cx="494.65" cy="928.65" r="0.650143" fill="white" fill-opacity="0.5"/>
<circle cx="619.28" cy="758.28" r="1.27972" fill="white" fill-opacity="0.4"/>
</svg>
