<svg width="1780" height="676" viewBox="0 0 1780 676" fill="none" xmlns="http://www.w3.org/2000/svg">
<ellipse cx="890" cy="338" rx="890" ry="338" fill="url(#paint0_radial_111_6198)"/>
<defs>
<radialGradient id="paint0_radial_111_6198" cx="0" cy="0" r="1" gradientUnits="userSpaceOnUse" gradientTransform="translate(890 338) rotate(90) scale(338 890)">
<stop stop-color="#353BC3" stop-opacity="0.75"/>
<stop offset="0.185" stop-color="#353BC3" stop-opacity="0.38"/>
<stop offset="1" stop-color="#2126A9" stop-opacity="0"/>
</radialGradient>
</defs>
</svg>
