<svg width="99" height="105" viewBox="0 0 99 105" fill="none" xmlns="http://www.w3.org/2000/svg">
<path d="M22.6436 100.996C21.8101 100.996 21.1344 101.672 21.1344 102.506C21.1344 103.339 21.8101 104.015 22.6436 104.015C23.477 104.015 24.1527 103.339 24.1527 102.506C24.1527 101.672 23.477 100.996 22.6436 100.996ZM22.3606 21.6592L22.3606 102.506L22.9265 102.506L22.9265 21.6592L22.3606 21.6592Z" fill="#6565CD"/>
<g clip-path="url(#clip0_2001_1494)">
<path d="M22 39C30.8366 39 38 31.8366 38 23C38 14.1634 30.8366 7 22 7C13.1634 7 6 14.1634 6 23C6 31.8366 13.1634 39 22 39Z" fill="#F0F0F0"/>
<path d="M38.001 23C38.001 16.6566 34.3095 11.1756 28.9575 8.58765V37.4123C34.3095 34.8244 38.001 29.3434 38.001 23V23Z" fill="#D80027"/>
<path d="M6 23C6 29.3434 9.69156 34.8244 15.0435 37.4124V8.58765C9.69156 11.1756 6 16.6566 6 23Z" fill="#D80027"/>
<path d="M24.7834 25.0874L27.5659 23.696L26.1747 23.0004V21.6091L23.392 23.0004L24.7834 20.2178H23.392L22.0007 18.1309L20.6094 20.2178H19.2181L20.6094 23.0004L17.8268 21.6091V23.0004L16.4355 23.696L19.2181 25.0874L18.5225 26.4787H21.3051V28.5656H22.6964V26.4787H25.479L24.7834 25.0874Z" fill="#D80027"/>
</g>
<path d="M58.512 27.12C56.016 27.12 54.36 25.488 54.36 22.98C54.36 20.472 56.016 18.84 58.512 18.84C60.78 18.84 62.364 20.04 62.364 21.96V22.128H60.936V21.96C60.936 20.736 60.156 20.076 58.524 20.076C56.64 20.076 55.728 20.976 55.728 22.98C55.728 24.984 56.64 25.872 58.524 25.872C60.156 25.872 60.936 25.224 60.936 23.988V23.832H62.364V23.988C62.364 25.92 60.792 27.12 58.512 27.12ZM65.0708 27.12C63.8348 27.12 63.0548 26.544 63.0548 25.56C63.0548 24.636 63.7988 24.156 64.9748 24.024L67.6868 23.736V23.388C67.6868 22.404 67.2548 22.056 66.1148 22.056C65.0108 22.056 64.4708 22.416 64.4708 23.292V23.34H63.1868V23.292C63.1868 21.936 64.3148 20.916 66.2108 20.916C68.1068 20.916 68.9588 21.948 68.9588 23.376V27H67.7708V25.512H67.6868C67.3748 26.52 66.4268 27.12 65.0708 27.12ZM64.3508 25.476C64.3508 25.956 64.6748 26.184 65.4188 26.184C66.7748 26.184 67.6868 25.68 67.6868 24.504L65.3468 24.768C64.6748 24.852 64.3508 25.008 64.3508 25.476ZM71.4116 27H70.1156V21.036H71.3036V22.884H71.3876C71.5676 21.876 72.3596 20.916 73.8716 20.916C75.5276 20.916 76.3436 22.032 76.3436 23.412V27H75.0476V23.76C75.0476 22.644 74.5436 22.08 73.3076 22.08C71.9996 22.08 71.4116 22.752 71.4116 24.048V27ZM79.2504 27.12C78.0144 27.12 77.2344 26.544 77.2344 25.56C77.2344 24.636 77.9784 24.156 79.1544 24.024L81.8664 23.736V23.388C81.8664 22.404 81.4344 22.056 80.2944 22.056C79.1904 22.056 78.6504 22.416 78.6504 23.292V23.34H77.3664V23.292C77.3664 21.936 78.4944 20.916 80.3904 20.916C82.2864 20.916 83.1384 21.948 83.1384 23.376V27H81.9504V25.512H81.8664C81.5544 26.52 80.6064 27.12 79.2504 27.12ZM78.5304 25.476C78.5304 25.956 78.8544 26.184 79.5984 26.184C80.9544 26.184 81.8664 25.68 81.8664 24.504L79.5264 24.768C78.8544 24.852 78.5304 25.008 78.5304 25.476ZM86.9233 27.12C85.0393 27.12 83.9953 25.86 83.9953 24.024C83.9953 22.164 85.0273 20.916 86.8393 20.916C88.2553 20.916 89.0593 21.648 89.2993 22.656H89.3713V18.96H90.6673V27H89.4793V25.284H89.3953C89.1433 26.472 88.2673 27.12 86.9233 27.12ZM85.3033 24.024C85.3033 25.452 86.0353 25.932 87.3193 25.932C88.5913 25.932 89.3713 25.332 89.3713 24.084V23.988C89.3713 22.716 88.6273 22.092 87.2953 22.092C86.0473 22.092 85.3033 22.584 85.3033 24.024ZM93.6176 27.12C92.3816 27.12 91.6016 26.544 91.6016 25.56C91.6016 24.636 92.3456 24.156 93.5216 24.024L96.2336 23.736V23.388C96.2336 22.404 95.8016 22.056 94.6616 22.056C93.5576 22.056 93.0176 22.416 93.0176 23.292V23.34H91.7336V23.292C91.7336 21.936 92.8616 20.916 94.7576 20.916C96.6536 20.916 97.5056 21.948 97.5056 23.376V27H96.3176V25.512H96.2336C95.9216 26.52 94.9736 27.12 93.6176 27.12ZM92.8976 25.476C92.8976 25.956 93.2216 26.184 93.9656 26.184C95.3216 26.184 96.2336 25.68 96.2336 24.504L93.8936 24.768C93.2216 24.852 92.8976 25.008 92.8976 25.476Z" fill="white"/>
<path d="M23 1C27.3512 1 31.6047 2.29028 35.2225 4.70767C38.8404 7.12506 41.6602 10.561 43.3254 14.581C44.9905 18.6009 45.4262 23.0244 44.5773 27.292C43.7284 31.5596 41.6331 35.4796 38.5564 38.5563C35.4796 41.6331 31.5596 43.7284 27.292 44.5773C23.0244 45.4262 18.6009 44.9905 14.581 43.3253C10.561 41.6602 7.12506 38.8404 4.70767 35.2225C2.29028 31.6047 0.999999 27.3512 0.999999 23" stroke="url(#paint0_angular_2001_1494)" stroke-linecap="round" stroke-linejoin="round"/>
<defs>
<radialGradient id="paint0_angular_2001_1494" cx="0" cy="0" r="1" gradientUnits="userSpaceOnUse" gradientTransform="translate(23 23) scale(22 22)">
<stop offset="0.4513" stop-color="white" stop-opacity="0"/>
<stop offset="0.568176" stop-color="white" stop-opacity="0"/>
<stop offset="0.746754" stop-color="white"/>
</radialGradient>
<clipPath id="clip0_2001_1494">
<rect width="32" height="32" fill="white" transform="translate(6 7)"/>
</clipPath>
</defs>
</svg>
