<svg width="34" height="34" viewBox="0 0 34 34" fill="none" xmlns="http://www.w3.org/2000/svg">
<path d="M17 0.999999C20.1645 0.999999 23.2579 1.93838 25.8891 3.69649C28.5203 5.45459 30.5711 7.95345 31.7821 10.8771C32.9931 13.8007 33.3099 17.0177 32.6926 20.1214C32.0752 23.2251 30.5513 26.0761 28.3137 28.3137C26.0761 30.5513 23.2251 32.0752 20.1214 32.6926C17.0177 33.3099 13.8007 32.9931 10.8771 31.7821C7.95345 30.5711 5.45459 28.5203 3.69649 25.8891C1.93838 23.2579 0.999999 20.1645 0.999999 17" stroke="url(#paint0_angular_111_6238)" stroke-linecap="round" stroke-linejoin="round"/>
<defs>
<radialGradient id="paint0_angular_111_6238" cx="0" cy="0" r="1" gradientUnits="userSpaceOnUse" gradientTransform="translate(17 17) scale(16)">
<stop offset="0.4513" stop-color="white" stop-opacity="0"/>
<stop offset="0.568176" stop-color="white" stop-opacity="0"/>
<stop offset="0.746754" stop-color="white"/>
</radialGradient>
</defs>
</svg>
