<svg width="132" height="32" viewBox="0 0 132 32" fill="none" xmlns="http://www.w3.org/2000/svg">
<line y1="15.5" x2="132" y2="15.5" stroke="url(#paint0_linear_316_1515)"/>
<circle cx="66" cy="16" r="16" fill="url(#paint1_radial_316_1515)"/>
<g filter="url(#filter0_d_316_1515)">
<circle cx="66" cy="16" r="4" fill="#D853DC"/>
</g>
<defs>
<filter id="filter0_d_316_1515" x="54" y="4" width="24" height="24" filterUnits="userSpaceOnUse" color-interpolation-filters="sRGB">
<feFlood flood-opacity="0" result="BackgroundImageFix"/>
<feColorMatrix in="SourceAlpha" type="matrix" values="0 0 0 0 0 0 0 0 0 0 0 0 0 0 0 0 0 0 127 0" result="hardAlpha"/>
<feOffset/>
<feGaussianBlur stdDeviation="4"/>
<feComposite in2="hardAlpha" operator="out"/>
<feColorMatrix type="matrix" values="0 0 0 0 0.847059 0 0 0 0 0.32549 0 0 0 0 0.862745 0 0 0 0.65 0"/>
<feBlend mode="normal" in2="BackgroundImageFix" result="effect1_dropShadow_316_1515"/>
<feBlend mode="normal" in="SourceGraphic" in2="effect1_dropShadow_316_1515" result="shape"/>
</filter>
<linearGradient id="paint0_linear_316_1515" x1="0" y1="16" x2="132" y2="16" gradientUnits="userSpaceOnUse">
<stop offset="0.133585" stop-color="#D853DC" stop-opacity="0"/>
<stop offset="0.537618" stop-color="#D853DC"/>
<stop offset="0.866415" stop-color="#D853DC" stop-opacity="0"/>
</linearGradient>
<radialGradient id="paint1_radial_316_1515" cx="0" cy="0" r="1" gradientUnits="userSpaceOnUse" gradientTransform="translate(66 16) rotate(90) scale(16)">
<stop stop-color="#D853DC" stop-opacity="0.43"/>
<stop offset="0.185" stop-color="#D853DC" stop-opacity="0.59"/>
<stop offset="1" stop-color="#742D76" stop-opacity="0"/>
</radialGradient>
</defs>
</svg>
