<svg width="32" height="32" viewBox="0 0 32 32" fill="none" xmlns="http://www.w3.org/2000/svg">
<g clip-path="url(#clip0_231_3343)">
<path d="M17.1085 15.8303C17.1085 19.0786 14.4932 21.7119 11.2673 21.7119C8.04129 21.7119 5.42578 19.0786 5.42578 15.8303C5.42578 12.5821 8.04109 9.94861 11.2673 9.94861C14.4934 9.94861 17.1085 12.5821 17.1085 15.8303Z" fill="white"/>
<path d="M23.5163 15.8304C23.5163 18.888 22.2086 21.3676 20.5955 21.3676C18.9825 21.3676 17.6748 18.888 17.6748 15.8304C17.6748 12.7728 18.9823 10.2932 20.5953 10.2932C22.2084 10.2932 23.5161 12.772 23.5161 15.8304" fill="white"/>
<path d="M26.1373 15.8304C26.1373 18.5693 25.6774 20.7909 25.11 20.7909C24.5426 20.7909 24.083 18.5699 24.083 15.8304C24.083 13.091 24.5428 10.87 25.11 10.87C25.6772 10.87 26.1373 13.0908 26.1373 15.8304Z" fill="white"/>
</g>
<rect x="0.35" y="0.35" width="31.3" height="31.3" rx="15.65" stroke="#61606D" stroke-width="0.7"/>
<defs>
<clipPath id="clip0_231_3343">
<rect width="32" height="32" rx="16" fill="white"/>
</clipPath>
</defs>
</svg>
