<svg width="31" height="59" viewBox="0 0 31 59" fill="none" xmlns="http://www.w3.org/2000/svg">
<path d="M21.8417 55.2526L21.5881 55.4166L21.5082 55.6098L21.4467 55.6853L21.2794 55.735L21.1133 55.736L20.4809 55.3497L20.3353 55.367L20.4799 55.19L20.8727 55.0454L21.0938 54.8544L21.6043 55.0389L21.8417 55.2526ZM12.3588 42.3361L12.4861 42.43L12.8055 42.4149L12.6997 42.6242L12.348 42.8573L12.1116 43.0872L11.8257 43.2792L11.6876 43.058L11.5268 43.0666L11.2808 42.6415L11.2365 42.0048L11.5581 41.8386L12.0027 41.8484L12.3588 42.3361ZM5.76241 32.3957L6.18972 32.5284L6.50802 32.5263L6.79073 32.9115L6.94182 33.5179L7.29467 34.1157L7.75652 34.6337L7.77487 34.9498L7.60975 35.1193L7.26553 35.3297L7.26661 35.5552L7.4943 35.4419L7.6907 35.3901L8.16332 35.4398L8.32843 35.6685L8.4428 36.0106L8.50323 36.2911L8.46223 36.5955L8.33489 36.4983L8.2054 36.2264L8.06189 36.1012L7.89464 36.0333L7.97018 36.4077L7.93995 36.9073L8.01226 36.9537L8.23672 36.9623L8.08886 37.4716L7.78132 37.6098L7.42416 37.6616L7.33784 37.8418L7.2731 38.0738L7.08642 38.4191L6.84039 38.6144L6.53608 38.5745L6.23826 38.4201L5.9782 38.3889L5.79692 38.4806L5.67929 38.5658L5.56492 38.5507L5.23795 38.5831L4.93041 38.5766L4.88619 38.4417L4.93907 38.036L4.86999 37.926L4.57651 37.8698L4.46751 37.7727L4.29808 37.4922L4.26465 37.3605L4.24091 37.1792L4.06177 36.945L3.84489 36.7767L3.71754 36.7681L3.46398 37.0422L3.25464 37.3195L3.32801 37.4587L3.39597 37.6411L3.28269 37.7727L2.93847 38.0727L2.8845 38.1892L2.7917 38.2529L2.6277 38.1698L2.2187 38.1892L2.03096 38.1363L1.81191 37.9152L1.27777 37.7673L1.1882 37.4123L1.08569 37.3454L0.480325 36.7357L0.399414 36.5318L0.478184 36.4099L0.703694 36.2253L1.46228 35.9189L1.58205 35.7959L1.60688 35.6869L1.38351 35.5628L1.1828 35.4246L1.11483 35.3351L1.10943 35.2563L1.2238 35.1538L1.45257 35.1462L1.63385 35.1926L1.77737 35.1009L2.02988 35.0081L2.19931 34.8916L2.34496 34.5905L2.49927 34.3197L2.51547 34.1729L2.65036 33.6561L2.72481 33.5276L3.20392 33.1888L3.32478 33.3744L3.56109 33.4197L3.77257 33.2492L4.02617 32.7108L4.20205 32.6773L4.39628 32.7216L4.77827 32.6536L5.45592 32.4022L5.76241 32.3957ZM9.60713 31.295L9.22513 31.2993L9.08702 31.2529L8.92191 31.1235L8.73631 30.3897L8.80323 30.1297L8.87877 30.0023L8.96291 29.9031L9.16471 29.862L9.36542 30.0012L9.44096 30.1307L9.60927 30.6271L9.64059 31.0522L9.60713 31.295ZM6.50802 28.7118L6.61702 29.4034L6.72385 29.8307L6.73139 29.9764L6.63105 30.1793L6.13143 30.449L5.97389 30.4501L5.9674 30.3843L6.07963 30.1102L5.98252 29.7984L6.03 29.561L5.9836 29.5178L5.88649 29.5513L5.52824 29.9279L5.40847 29.9645L5.39549 29.8879L5.48398 29.5793L5.49478 29.3678L5.54767 29.2383L5.64478 29.1185L5.76023 29.029L5.85412 29.016L5.95337 29.1088L6.24257 28.8499L6.50802 28.7118ZM6.98931 29.3376L6.92562 29.3948L6.77239 29.3786L6.71522 29.2912L6.68391 29.1574L6.68068 28.9124L6.77348 28.7365L7.16628 28.4711L6.98822 28.3772L6.98173 28.3103L7.08319 28.0891L7.5051 27.7449L7.61841 27.6823L7.73061 27.692L7.51264 28.3028L6.98931 29.3376ZM7.57093 26.4683L6.36451 26.7716L5.94906 26.7446L5.91132 26.5957L5.9944 26.4964L6.33863 26.4004L6.47783 25.6698L5.95772 25.3321L5.93072 25.2382L5.97175 25.0774L6.03218 25.0051L6.34726 24.8346L6.47997 24.7969L6.58788 24.8195L6.81016 25.017L7.0605 25.4303L7.3961 25.4961L7.62378 25.6709L7.57093 26.4683ZM5.05776 25.1519L4.88619 25.1821L4.87325 25.1044L5.17212 24.7332L5.3653 24.6717L5.43326 24.7084L5.29298 24.9242L5.05776 25.1519ZM2.60719 23.0531L2.34065 23.1286L2.24245 23.0844L2.22519 23.0142L2.28562 22.8233L2.48956 22.7553L2.63738 22.8589L2.66113 22.9527L2.60719 23.0531ZM6.05374 23.0574L5.96417 23.1286L5.85089 23.1146L5.73866 23.0229L5.58975 22.7617L5.92426 22.5805L6.05806 22.6873L6.10877 22.8092L6.11095 22.9441L6.05374 23.0574ZM3.11326 22.22L2.98487 22.2513L2.81761 22.2211L2.71401 22.1348L2.60933 21.7927L2.58993 21.5856L2.63633 21.1992L2.62553 20.7363L2.97084 20.7223L3.06038 20.7892L3.11975 22.1607L3.11326 22.22ZM6.46054 20.0403L6.45622 20.2885L6.40228 20.5809L6.47134 20.8906L6.48754 21.1118L6.61485 21.182L6.69257 21.2834L7.26016 21.3967L7.78781 21.3643L7.88924 21.455L7.90112 21.5996L7.81804 21.7582L7.51695 22.0474L7.1587 22.5146L7.05187 22.6117L6.93642 22.6161L6.85333 22.574L6.79399 21.7431L6.40551 21.8499L6.0926 21.838L5.921 21.7366L5.80123 21.5413L5.55843 21.0384L4.85273 20.8399L4.6531 20.5615L4.59268 20.3932L4.61751 20.3004L4.76424 20.0932L4.9477 20.1666L5.06098 20.1213L5.13004 20.0285L5.12898 19.9518L5.03293 19.7716L5.02861 19.7155L5.75052 19.4867L5.81417 19.1285L5.97066 19.0994L6.14977 19.217L6.39474 19.5893L6.46054 20.0403ZM3.24706 19.0368L3.58915 19.354L3.3172 19.8806L2.89961 19.8785L2.3115 19.4943L2.30936 19.4155L2.35793 19.3001L2.44639 19.2084L2.53813 19.1868L2.68378 19.2494L2.88667 19.1479L3.04852 19.1803L3.24706 19.0368ZM6.29654 15.1532L5.91132 16.1556L5.76023 16.1805L5.62752 16.4308L5.21747 16.706L5.57572 16.7114L5.67606 16.8031L5.67824 17.0006L5.61023 17.1149L5.14733 17.5703L4.82899 17.743L4.48585 18.2178L4.31211 18.2232L4.14054 18.5242L4.00025 18.6569H3.92043L3.82977 18.59L3.6172 18.2954L4.00351 18.0052L4.03911 17.8423L4.30348 17.6717L4.28082 17.6189L3.86105 17.3793L3.69597 17.2185L3.71109 17.1344L3.91285 16.9488L3.81792 16.925L3.75317 16.8247L3.63663 16.7858L3.601 16.693L3.57943 16.447L3.61072 16.1956L3.73266 16.0844L3.78228 15.9657L3.83194 15.929L4.02077 15.9927L4.21285 16.1945L4.43728 16.1168L4.69736 16.1546L4.70273 16.1082L4.51173 15.6129L4.54628 15.5115L4.64988 15.396L5.24984 15.041L5.99763 14.4432L6.17891 14.3493L6.23394 14.4313L6.30948 14.741L6.29654 15.1532ZM15.651 14.2738L15.6769 14.7464L15.6413 14.8899L15.569 15.0669L15.3402 15.396L14.7381 15.8654L13.6364 16.9402L12.9846 17.471L12.8951 17.7257L12.8465 18.0797L13.2361 18.1498L13.3871 18.2696L13.2943 18.4487L12.717 19.0713L12.5476 19.6324L12.99 19.6119L13.3547 19.504L14.081 19.1544L14.764 18.8943L15.0921 18.8836L15.7298 19.0907L15.8744 19.0972L16.1452 19.0012L16.4193 18.9839L18.2732 19.0486L18.789 18.9267L19.13 19.0724L19.4148 19.4349L19.6857 20.1029L19.677 20.2141L19.513 20.5172L19.2109 20.8971L18.9508 21.4194L18.8753 21.6999L18.8246 22.0075L18.7426 22.2913L18.2257 23.6185L17.7217 24.3501L17.4973 24.8681L17.22 25.2792L16.9524 25.5382L16.6675 25.7108L15.8431 25.8943L15.6122 26.0259L15.337 26.2515L15.0478 26.3637L15.3866 26.3496L15.7222 26.2245L16.3341 26.1792L17.0376 26.6108L16.9718 26.9636L16.6891 27.2421L16.046 27.2863L15.4449 27.9046L15.1741 28.0945L14.887 28.1884L14.5288 28.1603L13.8781 27.9952L13.5932 27.8226L13.8501 28.1042L14.1425 28.251L15.8355 28.5974L15.9381 28.5607L16.4776 28.196L17.1973 28.1906L18.5667 28.8617L18.9605 29.3743L19.526 30.1048L19.8335 30.3897L20.0558 30.6476L20.1928 31.0328L20.4583 32.3018L20.7615 33.5341L21.1575 34.8614L21.3377 35.2283L21.574 35.4851L22.7697 36.0743L23.0362 36.2696L23.5002 36.835L23.948 37.436L24.3645 37.8968L24.8145 38.2691L24.5965 38.4622L24.4476 38.7655L24.5598 39.1766L24.7422 39.5683L25.1015 40.1942L25.4188 40.8751L25.3022 40.7726L25.1792 40.7164L25.0109 40.7337L24.8469 40.7013L24.5437 40.4877L24.2523 40.2254L23.6728 40.3312L23.3513 40.2837L23.0718 40.2913L23.6016 40.4424L24.1811 40.4531L25.4587 41.5937L25.8903 42.267L26.1472 43.153L25.9723 43.5501L25.7004 43.8069L25.4468 44.0993L25.2084 44.4306L25.9173 44.9151L26.0705 44.9011L26.227 44.8331L26.3781 44.668L26.6317 44.2655L26.7622 44.1231L27.2036 44.0713L27.5737 44.1026L27.9417 44.1921L28.2664 44.164L28.9193 44.3367L29.2549 44.4921L30.0869 45.1903L30.2671 45.5723L30.3501 46.0643L30.3598 46.6082L30.2196 47.1034L30.0588 47.5502L29.9595 48.1253L29.8894 48.3325L29.7912 48.4944L29.3509 48.9465L29.0585 49.1321L28.9355 49.0512L28.8028 49.062L28.7887 49.171L28.9279 49.4008L28.929 49.6781L28.669 49.8832L28.4046 49.9706L27.9622 49.8616L27.3482 50.2435L27.7895 50.4399L27.8791 50.6482L27.769 51.014L27.4917 51.177L27.1831 51.2493L26.868 51.2665L26.6068 51.3561L26.3565 51.5287L26.6705 51.4381L26.8885 51.5179L27.0255 51.8244L27.1496 51.9129L27.7647 52.0434L28.1445 52.0424L28.8783 51.9679L29.2312 51.969L29.3563 52.0251L29.3585 52.2787L29.3045 52.9002L29.2074 53.0287L28.2352 53.5488L28.0355 53.9113L27.9805 54.1304L27.4118 54.0915L27.1453 54.3235L26.6845 54.4778L26.3284 54.6408L25.9799 54.8469L25.6929 54.9084L24.4552 54.6634L23.7074 54.684L22.6941 54.8976L22.433 54.862L22.0424 54.658L21.641 54.5199L21.1802 54.4595L20.782 54.2696L21.0302 54.6332L20.4788 54.9839L20.2241 55.053L19.9597 55.0422L19.4202 55.1371L18.9184 55.0853L18.994 55.3335L19.1278 55.5504L19.0188 55.6443L18.9044 55.6681L17.9527 55.5051L17.8178 55.5353L17.7002 55.6864L17.3538 55.6055L17.0171 55.3519L16.66 55.1803L16.2844 55.0994L15.9866 55.1274L14.7597 55.5289L14.5148 55.9303L14.3917 56.4989L14.2148 57.0029L13.9256 57.3903L13.5813 57.441L13.2576 57.1723L12.6425 56.8766L12.4332 56.6759L12.3663 56.664L12.2973 56.7353L12.0556 56.8259L11.8063 56.8302L11.4211 56.9101L10.7509 57.1507L10.4801 57.3136L9.89847 57.7636L9.77979 57.8877L9.56827 58.3399L9.24565 58.4197L8.94997 58.1305L8.61331 58.0291L8.25829 58.1273L8.04355 58.2816L7.94321 58.1564L7.93995 57.8996L8.19895 57.5931L8.89062 57.3611L9.49813 56.7579L9.79595 56.39L9.91467 56.1817L10.0603 56.049L10.2503 55.9993L10.3485 55.7695L11.1912 54.8436L11.2603 54.6311L11.3023 54.2491L11.3714 53.8811L12.0577 53.6427L12.3858 52.8668L12.4764 52.8053L13.4335 52.6628L14.1436 52.6747L14.8493 52.8269L15.2107 52.8409L15.5733 52.788L15.8582 52.5776L16.3448 51.8179L16.6189 51.4823L16.933 51.1791L17.2265 50.8327L17.7023 50.1896L17.3808 50.4119L16.9923 50.7637L16.7668 50.9676L16.0503 51.1727L15.7417 51.382L15.201 51.8535L15.0975 51.8924L14.2817 51.7791L13.6752 51.1673L13.2879 50.9169L13.1281 50.8878L12.962 50.9622L12.608 51.0388L12.2476 51.0259L12.4322 50.7421L12.6825 50.5835L12.1214 50.4734L11.9649 50.3871L11.7868 50.1874L11.3466 50.154L11.1373 50.2047L10.7833 50.468L10.2243 50.7475L9.54993 50.3601L9.41831 50.1907L9.42153 49.8616L9.32011 49.6004L9.13342 49.5087L9.37191 49.1688L9.66107 48.9422L10.2956 48.7167L11.257 48.1804L11.7966 47.9516L12.2973 47.5567L12.5044 47.315L12.6544 46.9837L12.8033 46.5779L13.0159 46.2467L12.8098 46.1679L12.717 45.9186L12.7418 45.6651L12.8368 45.4395L12.7515 45.1568L12.5994 44.8612L12.608 44.6302L12.649 44.3831L12.2627 44.3961L11.8775 44.4738L11.5279 44.6486L11.1891 44.886L10.888 44.9302L10.8923 44.7403L11.0229 44.505L11.3639 44.1684L11.7286 43.8889L11.8581 43.6763L11.9606 43.4292L12.1419 43.2307L12.6188 42.8552L13.5328 42.4322L13.6688 42.4073L14.027 42.457L14.3799 42.3922L14.6885 42.2401L14.996 42.2077L15.6888 42.6469L15.4827 41.9671L15.7881 41.8041L16.2305 42.4192L16.3945 42.484L16.742 42.3944L16.6082 42.2908L16.4517 42.2843L16.2466 42.1915L16.074 41.994L15.787 41.366L15.8032 40.9927L15.9963 40.6042L16.21 40.246L16.0309 40.1747L15.8873 40.0377L15.8463 39.6784L15.9024 39.36L16.2866 39.0795L16.3999 38.6521L16.4474 38.1806L16.3837 37.9637L16.0017 37.9982L15.8161 38.0867L15.6499 38.2259L15.4794 38.2173L15.0079 37.695L14.7392 37.299L14.2568 36.4595L14.1889 35.9555L14.5741 34.8657L15.1697 34.1654L15.8711 33.9204L15.7352 33.874L14.6658 33.8643L14.313 33.9506L13.986 34.2377L13.8015 34.3262L13.6073 34.3585L13.4303 34.501L13.2576 34.6985L13.0774 34.8258L12.7203 34.7923L12.5476 34.8344L12.4235 34.72L12.3188 34.5312L12.1829 34.4805L12.0307 34.5387L11.7092 34.7934L11.3833 34.9434L10.9894 34.7826L10.4725 34.4826L10.3711 34.5927L10.2567 34.8711L10.1909 35.3038L9.82401 34.9272L9.51216 34.4233L9.40642 34.106L9.39888 33.7478L9.56827 33.6086L9.75282 33.7359L10.0269 32.8845L10.5729 31.7709L10.7661 31.4439L10.9009 31.0156L10.8783 30.735L10.7585 30.4976L10.2503 29.9581L10.2567 29.5167L10.3107 29.0182L10.4488 28.7182L10.5071 28.661L11.1815 28.6686L10.9182 28.5132L10.3938 28.0611L10.4035 27.9003L10.5265 27.4805L10.4693 27.5226L10.3571 27.7169L10.1424 28.1862L10.0118 28.2952L9.64059 28.4064L9.57259 28.6362L9.51324 28.6966L9.32873 28.7225L9.27153 28.9373L9.23053 28.9513L9.17765 28.7204L9.17225 28.3362L9.24565 27.9823L9.3859 27.705L9.92978 27.0737L9.66538 27.269L9.06542 27.8528L8.75897 28.2359L8.67697 28.3654L8.65214 28.4744L8.65323 28.5995L8.79028 29.2696L8.75034 29.5793L8.23346 31.6134L8.13526 31.8162L8.04572 31.922L7.96046 31.9468L7.70581 31.9079L7.5925 31.7558L7.59358 31.5842L7.64107 31.3264L7.85578 30.3627L7.94861 30.094L8.08672 29.8437L8.391 29.4056L8.38346 29.3765L8.18061 29.4628L8.09426 29.4347L8.03169 29.3473L8.07161 28.0406L8.23672 27.6089L8.2982 26.9798L8.44066 26.4392L8.60574 26.0443L8.732 25.5382L8.92082 25.3126L8.97157 24.9674L9.18414 24.5929L9.34816 24.2012L9.25968 24.2401L8.20972 25.2587L7.94212 25.4432L7.57738 25.3936L7.29899 25.2792L7.08102 25.0386L6.9839 24.5757L6.71522 24.5638L6.48537 24.4839L6.48754 24.4213L6.78428 24.1688L7.26016 24.0825L7.70581 23.6768L7.30979 23.4027L7.34324 23.3153L7.68852 23.0811L8.12772 22.2945L8.2162 21.5683L8.00686 21.2262L7.93132 21.0018L7.51155 20.7514L7.44144 20.4309L7.48998 20.2507L7.62704 20.0749L7.83312 19.9389L8.15686 19.8072L7.86335 19.6669L7.7533 19.5008L7.67018 19.2602L7.66264 19.121L7.81478 18.4994L7.90326 18.2426L8.07701 17.9145L8.86257 17.9329L8.95323 17.7883L9.04276 17.7829L9.44419 17.9156L9.38485 17.7732L8.72768 16.9909L8.66834 16.842L8.85608 16.419L8.86905 16.2301L8.84205 16.0283L8.89602 15.874L9.10428 15.8017L9.73879 15.8082L9.89524 15.737L9.82401 15.5319L9.67619 15.2622L9.64704 15.0356L9.68159 14.8349L9.68913 14.4302L9.71827 14.2511L9.86936 13.9824L9.99344 13.9026L10.1478 13.8562L10.4963 13.9457L10.629 14.0536L10.7822 14.3094L10.8945 14.2889L11.3283 14.0104L11.4588 13.9705L11.6369 14.2932L12.3782 14.0364L13.3742 13.922L13.973 13.7526L14.6032 13.691L15.1913 13.4979L15.815 13.5864L15.8366 13.6986L15.8043 13.854L15.651 14.2738ZM16.1981 12.9605L16.169 12.9778L16.0578 12.8709L15.8765 12.4879L16.1625 12.4113L16.2974 12.4587L16.2466 12.6217L16.1981 12.9605ZM15.4837 12.6541L15.31 12.7317L15.1385 12.7263L14.8708 12.3886L14.7694 12.1426L14.7878 11.9796L14.9 11.9246L15.1589 12.0045L15.2928 12.2861L15.31 12.4685L15.3413 12.5397L15.5021 12.612L15.4837 12.6541ZM15.8096 11.2761L15.7686 11.4207L15.9985 11.4174L16.3319 11.5404L16.5337 11.5556L16.702 11.7088L16.6092 11.9948L16.5089 12.0757L16.3956 12.0919L15.9985 11.8059L15.4784 11.9246L15.3748 11.8879L15.3068 11.8092L15.2787 11.711V11.5102L15.2507 11.4509L15.0618 11.6408L14.9798 11.6182L14.9334 11.5275L14.9129 11.3398L14.9334 11.0689L15.0446 10.6815L15.2313 10.6038L15.5097 10.6491L15.8291 10.8682L15.9251 11.0031L15.9229 11.111L15.8096 11.2761ZM17.3495 10.0869L17.0074 10.0934L17.1844 9.74379L17.3905 9.65532L17.78 9.69417L17.711 9.85171L17.3495 10.0869ZM16.8035 10.3502L16.5434 10.497L16.4323 10.3761L16.4031 9.99629L16.0934 9.83336L15.9424 9.73194L15.8258 9.53985L15.855 9.48051L16.0567 9.40174L16.402 9.75028L16.5434 10.0308L16.7992 10.1139L16.8315 10.1571L16.8035 10.3502ZM21.1068 2.21618L21.1694 2.64889L21.3258 2.53668L21.5622 2.95103H21.683L21.8816 2.78702L21.8417 3.17224L21.6356 4.23729L21.5773 4.4175L21.5384 4.74014L21.4974 4.80381L21.437 5.45449L21.2978 5.66814L21.1812 6.17747L21.1338 6.22711L20.9633 6.0318L21.1338 5.25378L21.2039 4.80057L21.1586 4.56533L21.0626 4.35276L20.8014 4.34627L20.5813 4.44447L20.5349 4.3193L20.5284 4.15096L20.4755 4.09486L20.1831 4.10672L20.0968 4.06032L20.0396 3.90494L20.0288 3.78085L20.2932 3.68372L20.5414 3.72042L20.9039 3.47331L20.6773 2.64351L20.3763 2.56472L20.3072 2.4838L20.3655 2.34244L20.5306 2.26583L20.7842 1.84175L20.9363 1.77485L21.1252 1.78672L21.1068 2.21618ZM21.9118 2.36187L21.8352 2.43201L21.5395 1.80722L21.7586 1.08964L22.024 1.1123L22.0661 1.30005L22.0402 1.47379L21.9053 1.48889L21.8934 1.54176L21.9355 1.8752L21.9377 2.26151L21.9118 2.36187ZM22.7233 0.520962V0.592191L22.5657 1.11446L22.5679 1.31408L22.3143 1.29467L22.2743 1.231L22.2269 0.932085L22.2593 0.61376L22.2949 0.530676L22.3682 0.497219L22.4481 0.55982L22.5743 0.397949L22.6402 0.401193L22.7233 0.520962Z" fill="url(#paint0_linear_528_3885)" stroke="url(#paint1_linear_528_3885)" stroke-width="0.565924"/>
<defs>
<linearGradient id="paint0_linear_528_3885" x1="15.3796" y1="0.397949" x2="15.3796" y2="58.4197" gradientUnits="userSpaceOnUse">
<stop offset="0.434878" stop-color="#4E39CF" stop-opacity="0.83"/>
<stop offset="0.809776" stop-color="#5F5FC9" stop-opacity="0.01"/>
</linearGradient>
<linearGradient id="paint1_linear_528_3885" x1="15.3796" y1="0.397949" x2="15.3796" y2="58.4197" gradientUnits="userSpaceOnUse">
<stop stop-color="#4F4FB6"/>
<stop offset="0.786706" stop-color="#5F5FC9" stop-opacity="0.33"/>
</linearGradient>
</defs>
</svg>
