<svg width="792" height="586" viewBox="0 0 792 586" fill="none" xmlns="http://www.w3.org/2000/svg">
<path d="M162.408 238.465L312.459 119.35L483.545 148.778L543.145 335.157L416.934 426.245L279.504 396.116L162.408 238.465Z" fill="url(#paint0_linear_111_5624)"/>
<mask id="path-2-inside-1_111_5624" fill="white">
<path d="M263.403 341.487L263.442 341.559L263.578 341.766L293.819 386.362L323.042 404.197L323.289 404.531L323.806 403.982L326.743 401.047L332.313 409.797L332.361 409.877L369.455 432.469L369.654 432.803L369.789 432.66L370.004 432.429L373.187 429.287L378.217 437.791L423.683 465.483L424.097 465.077L463.506 413.576L457.768 397.801L470.271 403.839L470.677 404.038L471.051 403.712L505.781 358.32L505.892 358.177L502.86 346.244L511.383 350.222L511.932 350.333L512.1 350.071L542.341 310.598L542.445 310.462L535.529 271.053L535.449 270.695L535.25 270.624L527.833 267.362L533.635 260.274L525.414 213.077L524.881 212.886L514.582 209.791L523.122 200.364L512.521 139.906L512.474 139.468L511.972 139.373L454.473 132.484L446.698 139.278L444.12 131.696L443.881 131.235L443.547 131.171L395.208 125.436L386.748 132.396L384.233 124.585L384.058 124.107H383.804L344.275 119.35L306.823 147.988L306.696 148.108L306.035 148.617L306.664 148.736L310.333 157.065L298.276 154.519L255.086 187.573L254.593 187.899L254.895 188.328L262.543 201.375L244.796 195.448L192.383 235.566L191.921 235.939L191.857 235.995L192.152 236.274L225.107 284.935L232.859 289.199L230.384 291.681L229.946 292.11L229.819 292.245L230.169 292.436L257.529 332.848L266.22 338.17L263.617 340.763L263.403 341.487ZM354.326 397.769L363.08 412.367L372.702 428.603L369.741 431.538L356.467 409.145L346.503 392.352L349.615 389.241L357.685 394.349L354.987 397.045L354.326 397.769ZM273.072 316.301L273.263 316.604L293.668 348.862L290.548 351.98L271.106 321.56L264.342 310.98L267.199 308.124L268.233 308.696L273.144 311.401L276.255 313.119L273.486 315.888L273.072 316.301ZM413.417 170.008L426.715 172.657L470.406 181.344L481.261 226.202L484.771 240.673L484.118 240.466L475.054 237.594L462.527 189.76L462.838 189.45L462.408 189.363L462.265 188.925L461.93 189.259L416.958 179.832V179.785L413.417 170.008ZM477.592 250.394L487.858 253.639H487.898L499.183 300.232L496.987 299.309L490.119 296.43L481.365 261.881L481.253 261.443L481.524 261.141L481.15 261.03L481.022 260.544L480.712 260.887L480.418 260.799L470.868 257.832L476.303 251.81L477.568 250.426L477.592 250.394ZM268.782 308.1L268.17 307.137L263.021 299.007L236.997 257.895L251.775 265.007L277.489 277.369L293.023 303.621L308.709 330.096L275.372 311.759L268.782 308.1ZM480.091 261.539L437.156 308.33L423.81 304.552L422.449 300.821L420.253 294.767L433.296 298.594L433.44 299.007L433.694 298.721L434.204 298.88L434.036 298.371L470.231 258.492L479.343 261.316L480.091 261.539ZM436.973 309.086L453.407 355.973L445.218 352.155L440.268 349.856L428.872 318.513L429.134 318.227L428.72 318.107L428.569 317.694L428.307 317.988H428.251L418.701 315.251L425.123 308.171L424.144 305.467L430.869 307.368L436.973 309.086ZM400.158 420.322L399.529 419.924L358.942 394.213L358.719 394.07L358.273 393.784L349.806 388.43L345.962 381.947L344.744 379.878L344.482 379.441L344.338 379.186L324.188 345.194L369.662 370.714L376.745 374.692L386.748 394.205L400.158 420.322ZM309.847 330.43L309.051 329.149L279.136 278.618L278.221 277.123L299.86 258.031L335.362 226.751L338.752 233.609L287.023 278.801L285.328 280.281L284.58 279.915L284.97 280.583L284.699 280.806L285.28 281.108L285.734 281.904L312.792 327.55L310.484 329.849L309.847 330.43ZM424.232 307.965L372.567 364.891L343.646 308.609L402.92 249.352L418.995 293.59L419.274 294.385L419.322 294.513L421.908 301.616L424.232 307.965ZM339.11 234.309L339.627 233.855L339.707 233.784L344.569 229.536L402.37 248.843L343.129 308.06L329.536 301.521L286.108 280.639L323.559 247.928L339.11 234.309ZM372.925 365.655L418.096 315.896L427.415 318.561L427.702 318.64L376.952 373.952L323.711 344.089L326.846 340.906L372.543 366.188L372.925 365.655ZM412.462 239.233L432.954 297.695L424.916 295.308L419.895 293.836L403.501 248.723L403.747 248.485L403.333 248.341L403.158 248.031L402.951 248.238L402.227 247.999L362.436 234.698L355.464 220.785L398.105 234.555L412.462 239.233ZM396.227 183.396L354.621 219.727L353.952 219.512L354.231 220.069L353.936 220.324L354.438 220.483L361.369 234.348L352.806 231.485L346.248 217.229L393.449 175.99L395.208 180.684L396.227 183.396ZM302.319 203.65L345.524 217.603H345.572L351.795 231.127L344.394 228.653L339.357 233.06L335.958 226.187L336.046 226.115L335.807 225.868L335.608 225.479L335.401 225.662L309.187 216.911L302.319 203.65ZM313.333 326.953L286.529 281.721L342.874 308.768L353.546 329.539L371.564 364.605L327.419 340.318L327.085 340.135L326.711 339.936L318.681 335.521L318.57 335.457L318.323 335.322L317.01 333.103L313.333 326.953ZM322.58 344.089L343.734 379.751L341.346 382.138L340.773 382.71L315.227 339.522L318.41 336.34L322.628 338.655L326.106 340.572L322.978 343.691L322.58 344.089ZM477.338 249.487L469.379 258.237L433.71 297.535L413.241 239.082L461.891 190.452L463.84 197.89L477.369 249.511L477.338 249.487ZM416.568 180.564L461.262 189.935L412.716 238.461L375.495 226.441L355.48 219.99L396.521 184.192L403.731 177.891L406.31 178.44H406.493L407.209 178.599L416.568 180.564ZM403.508 177.032L396.847 182.847L395.152 178.337L394.062 175.441L394.165 175.354L394.555 174.956H393.895L393.791 174.693L393.521 174.924L379.466 171.917L359.873 167.725L356.69 158.744L402.37 167.812L406.031 177.549L403.508 177.032ZM310.205 331.177L310.253 331.13L311.646 329.769L313.19 328.226L315.896 332.792L317.758 335.974L314.686 339.045L274.194 316.246L276.971 313.469L309.768 331.52L310.205 331.177ZM341.243 383.363L344.179 380.435L349.05 388.724L347.514 390.228L345.978 391.819L345.397 391.461L306.497 367.357L309.29 364.565L340.686 383.768L341.243 383.363ZM348.405 166.038L348.7 166.102L349.312 166.237L359.316 168.377L392.828 175.537L345.564 216.808L302.358 202.846L347.363 165.832L348.405 166.038ZM301.3 203.284L308.16 216.553L298.793 213.435L292.689 201.693L291.71 199.784L336.118 163.715L336.563 165.028L338.871 171.822L316.031 190.556L301.475 202.488L301.332 202.632C301.451 202.361 301.3 203.284 301.3 203.284ZM332.974 225.654L334.757 226.25L277.704 276.574L236.687 256.845L285.861 216.402L291.432 211.804L332.974 225.654ZM258.962 302.42L243.602 278.388L226.985 252.383L280.951 208.518L284.93 216.203L238.469 254.387L235.97 256.44L234.976 255.962L235.517 256.814L235.31 256.981L235.755 257.195L249.404 278.754L262.272 299.087L259.606 301.752L258.962 302.42ZM300.273 357.716L295.864 350.763L274.767 317.431L314.511 339.705L327.324 361.311L339.659 382.122L336.126 379.966L309.855 363.976L300.568 358.288L300.273 357.716ZM401.575 421.459L441.875 372.202L448.513 375.583L443.968 381.064L404.83 428.293L389.008 418.468L355.472 397.666L356.021 397.117L358.369 394.77L400.85 421.682L401.24 421.913L401.575 421.459ZM441.167 371.844L401.193 420.712L377.461 374.509L428.251 319.157L439.241 349.387L442.631 358.726L442.83 359.275L443.006 359.736L445.489 366.57L441.167 371.852V371.844ZM494.83 319.213L472.73 346.117L457.116 365.169L443.65 359.203L440.634 350.914L453.757 357.023L453.916 357.477L454.171 357.214L454.744 357.477L454.521 356.84L487.946 315.999L493.867 318.775L494.83 319.213ZM487.174 315.617L454.895 355.106L454.211 355.902L447.104 335.624L437.705 308.824L451.147 294.178L480.593 262.096L489.347 296.422L489.458 296.867V296.971L489.578 297.44L492.53 309.086L487.174 315.617ZM501.984 310.502L492.649 306.525L490.326 297.376L494.902 299.294L499.318 301.147V301.839L499.716 301.433L499.796 301.33L500.226 301.513L500.098 300.964L526.273 268.969L527.149 267.903L534.311 271.085L530.133 276.176L501.984 310.502ZM532.672 260.019L526.958 266.996L500.043 299.882L499.899 300.065L488.638 253.401L524.65 214.127L532.672 260.019ZM488.002 252.86L478.205 249.765L475.253 238.501L485.065 241.603L485.296 241.834L485.399 241.715L485.813 241.842L485.702 241.381L513.858 210.356L524.156 213.458L488.002 252.86ZM486.991 238.811L485.479 240.474L471.154 181.137L511.741 140.566L522.183 200.102L486.991 238.811ZM454.72 133.319L511.168 140.057L470.581 180.628L448.656 176.237L413.584 169.26L437.459 148.418L446.786 140.28L454.72 133.319ZM443.491 132.277L446.069 139.858L442.162 143.247L412.629 169.077L412.223 168.998L412.342 169.316L411.865 169.69L412.509 169.841L415.939 179.387L416.043 179.689L406.859 177.764L403.079 167.677V167.613L413.042 158.903L443.491 132.277ZM395.471 126.247L442.759 131.887L412.446 158.378L402.506 167.057L356.889 157.98L357.589 157.407L386.828 133.359L387.035 133.192L395.471 126.247ZM355.679 158.067L355.767 158.497L357.573 163.564L358.958 167.462L348.922 165.314L345.413 156.071L383.613 125.046L386.135 132.866L355.894 157.733L355.679 158.067ZM344.466 120.138L382.841 124.72L344.864 155.554L326.56 151.91L307.826 148.179L344.466 120.138ZM336.659 162.745L336.157 162.61L311.208 157.264L307.539 148.919L344.681 156.349L348.031 165.187L347.156 165.004L339.508 171.289V171.185L336.786 163.182L336.659 162.745ZM298.459 155.331L310.651 157.94L333.65 162.864L335.409 163.246L291.137 199.203L271.456 192.839L255.977 187.835L298.459 155.331ZM280.951 207.484L280.791 207.429L263.665 201.717L256.017 188.663L280.465 196.554L290.954 199.975L291.655 201.319L297.727 213.108L291.273 210.953L285.479 215.726L281.5 208.041L280.951 207.484ZM244.947 196.283L280.218 208.057L250.558 232.145L226.293 251.85L193.155 235.939L244.947 196.283ZM225.632 284.346L193.56 236.997L210.639 245.215L226.182 252.693L257.681 302.014L233.448 288.674L225.632 284.346ZM259.32 303.112L259.622 302.818L262.623 299.811L267.191 307.026L267.063 307.153L263.793 310.415L231.108 292.118L233.583 289.636L258.858 303.518L259.32 303.112ZM231.689 293.295L243.483 299.914L263.562 311.17L283.609 342.545L289.243 351.359L258.142 332.339L231.689 293.295ZM290.954 352.632L294.074 349.514L299.231 357.612L298.674 358.169L296.024 360.818L264.31 341.169L266.896 338.592L286.792 350.763L290.198 352.855L290.509 353.046L290.954 352.632ZM265.05 342.561L295.785 361.59L322.047 402.693L294.384 385.853L265.05 342.561ZM305.375 367.349L305.566 367.659L326.257 400.371L323.321 403.314L296.525 361.383L299.398 358.511L299.963 358.861L308.566 364.119L305.773 366.912L305.375 367.349ZM332.863 409.32L327.292 400.506L307.396 369.051L307.149 368.646L345.787 392.59L368.595 431.069L332.863 409.32ZM373.665 428.754L355.989 398.899L404.662 429.08L422.569 463.947L378.702 437.226L373.665 428.754ZM462.559 413.465L423.627 464.377L405.411 428.905L436.448 391.445L449.022 376.275L456.686 397.379L462.559 413.465ZM449.07 375.01L446.73 373.817L442.409 371.613L446.388 366.737L444 360.198L456.885 365.941L469.817 402.829L457.283 396.759L449.571 375.519L449.07 375.01ZM504.969 358.034L470.661 402.868L463.928 383.649L457.657 365.774L457.752 365.671L495.3 319.961L501.849 345.751V345.831L504.969 358.034ZM502.534 345.306L495.896 319.189L495.992 319.07L495.825 318.903L495.658 318.258L495.355 318.632L488.814 315.546L488.439 315.363L493.382 309.325L492.92 307.503L501.849 311.266L510.755 348.066L511.025 349.196L502.534 345.306ZM511.789 349.108L502.581 311.059L521.554 287.989L534.781 271.88L541.513 310.303L511.789 349.108Z"/>
</mask>
<path d="M263.403 341.487L263.442 341.559L263.578 341.766L293.819 386.362L323.042 404.197L323.289 404.531L323.806 403.982L326.743 401.047L332.313 409.797L332.361 409.877L369.455 432.469L369.654 432.803L369.789 432.66L370.004 432.429L373.187 429.287L378.217 437.791L423.683 465.483L424.097 465.077L463.506 413.576L457.768 397.801L470.271 403.839L470.677 404.038L471.051 403.712L505.781 358.32L505.892 358.177L502.86 346.244L511.383 350.222L511.932 350.333L512.1 350.071L542.341 310.598L542.445 310.462L535.529 271.053L535.449 270.695L535.25 270.624L527.833 267.362L533.635 260.274L525.414 213.077L524.881 212.886L514.582 209.791L523.122 200.364L512.521 139.906L512.474 139.468L511.972 139.373L454.473 132.484L446.698 139.278L444.12 131.696L443.881 131.235L443.547 131.171L395.208 125.436L386.748 132.396L384.233 124.585L384.058 124.107H383.804L344.275 119.35L306.823 147.988L306.696 148.108L306.035 148.617L306.664 148.736L310.333 157.065L298.276 154.519L255.086 187.573L254.593 187.899L254.895 188.328L262.543 201.375L244.796 195.448L192.383 235.566L191.921 235.939L191.857 235.995L192.152 236.274L225.107 284.935L232.859 289.199L230.384 291.681L229.946 292.11L229.819 292.245L230.169 292.436L257.529 332.848L266.22 338.17L263.617 340.763L263.403 341.487ZM354.326 397.769L363.08 412.367L372.702 428.603L369.741 431.538L356.467 409.145L346.503 392.352L349.615 389.241L357.685 394.349L354.987 397.045L354.326 397.769ZM273.072 316.301L273.263 316.604L293.668 348.862L290.548 351.98L271.106 321.56L264.342 310.98L267.199 308.124L268.233 308.696L273.144 311.401L276.255 313.119L273.486 315.888L273.072 316.301ZM413.417 170.008L426.715 172.657L470.406 181.344L481.261 226.202L484.771 240.673L484.118 240.466L475.054 237.594L462.527 189.76L462.838 189.45L462.408 189.363L462.265 188.925L461.93 189.259L416.958 179.832V179.785L413.417 170.008ZM477.592 250.394L487.858 253.639H487.898L499.183 300.232L496.987 299.309L490.119 296.43L481.365 261.881L481.253 261.443L481.524 261.141L481.15 261.03L481.022 260.544L480.712 260.887L480.418 260.799L470.868 257.832L476.303 251.81L477.568 250.426L477.592 250.394ZM268.782 308.1L268.17 307.137L263.021 299.007L236.997 257.895L251.775 265.007L277.489 277.369L293.023 303.621L308.709 330.096L275.372 311.759L268.782 308.1ZM480.091 261.539L437.156 308.33L423.81 304.552L422.449 300.821L420.253 294.767L433.296 298.594L433.44 299.007L433.694 298.721L434.204 298.88L434.036 298.371L470.231 258.492L479.343 261.316L480.091 261.539ZM436.973 309.086L453.407 355.973L445.218 352.155L440.268 349.856L428.872 318.513L429.134 318.227L428.72 318.107L428.569 317.694L428.307 317.988H428.251L418.701 315.251L425.123 308.171L424.144 305.467L430.869 307.368L436.973 309.086ZM400.158 420.322L399.529 419.924L358.942 394.213L358.719 394.07L358.273 393.784L349.806 388.43L345.962 381.947L344.744 379.878L344.482 379.441L344.338 379.186L324.188 345.194L369.662 370.714L376.745 374.692L386.748 394.205L400.158 420.322ZM309.847 330.43L309.051 329.149L279.136 278.618L278.221 277.123L299.86 258.031L335.362 226.751L338.752 233.609L287.023 278.801L285.328 280.281L284.58 279.915L284.97 280.583L284.699 280.806L285.28 281.108L285.734 281.904L312.792 327.55L310.484 329.849L309.847 330.43ZM424.232 307.965L372.567 364.891L343.646 308.609L402.92 249.352L418.995 293.59L419.274 294.385L419.322 294.513L421.908 301.616L424.232 307.965ZM339.11 234.309L339.627 233.855L339.707 233.784L344.569 229.536L402.37 248.843L343.129 308.06L329.536 301.521L286.108 280.639L323.559 247.928L339.11 234.309ZM372.925 365.655L418.096 315.896L427.415 318.561L427.702 318.64L376.952 373.952L323.711 344.089L326.846 340.906L372.543 366.188L372.925 365.655ZM412.462 239.233L432.954 297.695L424.916 295.308L419.895 293.836L403.501 248.723L403.747 248.485L403.333 248.341L403.158 248.031L402.951 248.238L402.227 247.999L362.436 234.698L355.464 220.785L398.105 234.555L412.462 239.233ZM396.227 183.396L354.621 219.727L353.952 219.512L354.231 220.069L353.936 220.324L354.438 220.483L361.369 234.348L352.806 231.485L346.248 217.229L393.449 175.99L395.208 180.684L396.227 183.396ZM302.319 203.65L345.524 217.603H345.572L351.795 231.127L344.394 228.653L339.357 233.06L335.958 226.187L336.046 226.115L335.807 225.868L335.608 225.479L335.401 225.662L309.187 216.911L302.319 203.65ZM313.333 326.953L286.529 281.721L342.874 308.768L353.546 329.539L371.564 364.605L327.419 340.318L327.085 340.135L326.711 339.936L318.681 335.521L318.57 335.457L318.323 335.322L317.01 333.103L313.333 326.953ZM322.58 344.089L343.734 379.751L341.346 382.138L340.773 382.71L315.227 339.522L318.41 336.34L322.628 338.655L326.106 340.572L322.978 343.691L322.58 344.089ZM477.338 249.487L469.379 258.237L433.71 297.535L413.241 239.082L461.891 190.452L463.84 197.89L477.369 249.511L477.338 249.487ZM416.568 180.564L461.262 189.935L412.716 238.461L375.495 226.441L355.48 219.99L396.521 184.192L403.731 177.891L406.31 178.44H406.493L407.209 178.599L416.568 180.564ZM403.508 177.032L396.847 182.847L395.152 178.337L394.062 175.441L394.165 175.354L394.555 174.956H393.895L393.791 174.693L393.521 174.924L379.466 171.917L359.873 167.725L356.69 158.744L402.37 167.812L406.031 177.549L403.508 177.032ZM310.205 331.177L310.253 331.13L311.646 329.769L313.19 328.226L315.896 332.792L317.758 335.974L314.686 339.045L274.194 316.246L276.971 313.469L309.768 331.52L310.205 331.177ZM341.243 383.363L344.179 380.435L349.05 388.724L347.514 390.228L345.978 391.819L345.397 391.461L306.497 367.357L309.29 364.565L340.686 383.768L341.243 383.363ZM348.405 166.038L348.7 166.102L349.312 166.237L359.316 168.377L392.828 175.537L345.564 216.808L302.358 202.846L347.363 165.832L348.405 166.038ZM301.3 203.284L308.16 216.553L298.793 213.435L292.689 201.693L291.71 199.784L336.118 163.715L336.563 165.028L338.871 171.822L316.031 190.556L301.475 202.488L301.332 202.632C301.451 202.361 301.3 203.284 301.3 203.284ZM332.974 225.654L334.757 226.25L277.704 276.574L236.687 256.845L285.861 216.402L291.432 211.804L332.974 225.654ZM258.962 302.42L243.602 278.388L226.985 252.383L280.951 208.518L284.93 216.203L238.469 254.387L235.97 256.44L234.976 255.962L235.517 256.814L235.31 256.981L235.755 257.195L249.404 278.754L262.272 299.087L259.606 301.752L258.962 302.42ZM300.273 357.716L295.864 350.763L274.767 317.431L314.511 339.705L327.324 361.311L339.659 382.122L336.126 379.966L309.855 363.976L300.568 358.288L300.273 357.716ZM401.575 421.459L441.875 372.202L448.513 375.583L443.968 381.064L404.83 428.293L389.008 418.468L355.472 397.666L356.021 397.117L358.369 394.77L400.85 421.682L401.24 421.913L401.575 421.459ZM441.167 371.844L401.193 420.712L377.461 374.509L428.251 319.157L439.241 349.387L442.631 358.726L442.83 359.275L443.006 359.736L445.489 366.57L441.167 371.852V371.844ZM494.83 319.213L472.73 346.117L457.116 365.169L443.65 359.203L440.634 350.914L453.757 357.023L453.916 357.477L454.171 357.214L454.744 357.477L454.521 356.84L487.946 315.999L493.867 318.775L494.83 319.213ZM487.174 315.617L454.895 355.106L454.211 355.902L447.104 335.624L437.705 308.824L451.147 294.178L480.593 262.096L489.347 296.422L489.458 296.867V296.971L489.578 297.44L492.53 309.086L487.174 315.617ZM501.984 310.502L492.649 306.525L490.326 297.376L494.902 299.294L499.318 301.147V301.839L499.716 301.433L499.796 301.33L500.226 301.513L500.098 300.964L526.273 268.969L527.149 267.903L534.311 271.085L530.133 276.176L501.984 310.502ZM532.672 260.019L526.958 266.996L500.043 299.882L499.899 300.065L488.638 253.401L524.65 214.127L532.672 260.019ZM488.002 252.86L478.205 249.765L475.253 238.501L485.065 241.603L485.296 241.834L485.399 241.715L485.813 241.842L485.702 241.381L513.858 210.356L524.156 213.458L488.002 252.86ZM486.991 238.811L485.479 240.474L471.154 181.137L511.741 140.566L522.183 200.102L486.991 238.811ZM454.72 133.319L511.168 140.057L470.581 180.628L448.656 176.237L413.584 169.26L437.459 148.418L446.786 140.28L454.72 133.319ZM443.491 132.277L446.069 139.858L442.162 143.247L412.629 169.077L412.223 168.998L412.342 169.316L411.865 169.69L412.509 169.841L415.939 179.387L416.043 179.689L406.859 177.764L403.079 167.677V167.613L413.042 158.903L443.491 132.277ZM395.471 126.247L442.759 131.887L412.446 158.378L402.506 167.057L356.889 157.98L357.589 157.407L386.828 133.359L387.035 133.192L395.471 126.247ZM355.679 158.067L355.767 158.497L357.573 163.564L358.958 167.462L348.922 165.314L345.413 156.071L383.613 125.046L386.135 132.866L355.894 157.733L355.679 158.067ZM344.466 120.138L382.841 124.72L344.864 155.554L326.56 151.91L307.826 148.179L344.466 120.138ZM336.659 162.745L336.157 162.61L311.208 157.264L307.539 148.919L344.681 156.349L348.031 165.187L347.156 165.004L339.508 171.289V171.185L336.786 163.182L336.659 162.745ZM298.459 155.331L310.651 157.94L333.65 162.864L335.409 163.246L291.137 199.203L271.456 192.839L255.977 187.835L298.459 155.331ZM280.951 207.484L280.791 207.429L263.665 201.717L256.017 188.663L280.465 196.554L290.954 199.975L291.655 201.319L297.727 213.108L291.273 210.953L285.479 215.726L281.5 208.041L280.951 207.484ZM244.947 196.283L280.218 208.057L250.558 232.145L226.293 251.85L193.155 235.939L244.947 196.283ZM225.632 284.346L193.56 236.997L210.639 245.215L226.182 252.693L257.681 302.014L233.448 288.674L225.632 284.346ZM259.32 303.112L259.622 302.818L262.623 299.811L267.191 307.026L267.063 307.153L263.793 310.415L231.108 292.118L233.583 289.636L258.858 303.518L259.32 303.112ZM231.689 293.295L243.483 299.914L263.562 311.17L283.609 342.545L289.243 351.359L258.142 332.339L231.689 293.295ZM290.954 352.632L294.074 349.514L299.231 357.612L298.674 358.169L296.024 360.818L264.31 341.169L266.896 338.592L286.792 350.763L290.198 352.855L290.509 353.046L290.954 352.632ZM265.05 342.561L295.785 361.59L322.047 402.693L294.384 385.853L265.05 342.561ZM305.375 367.349L305.566 367.659L326.257 400.371L323.321 403.314L296.525 361.383L299.398 358.511L299.963 358.861L308.566 364.119L305.773 366.912L305.375 367.349ZM332.863 409.32L327.292 400.506L307.396 369.051L307.149 368.646L345.787 392.59L368.595 431.069L332.863 409.32ZM373.665 428.754L355.989 398.899L404.662 429.08L422.569 463.947L378.702 437.226L373.665 428.754ZM462.559 413.465L423.627 464.377L405.411 428.905L436.448 391.445L449.022 376.275L456.686 397.379L462.559 413.465ZM449.07 375.01L446.73 373.817L442.409 371.613L446.388 366.737L444 360.198L456.885 365.941L469.817 402.829L457.283 396.759L449.571 375.519L449.07 375.01ZM504.969 358.034L470.661 402.868L463.928 383.649L457.657 365.774L457.752 365.671L495.3 319.961L501.849 345.751V345.831L504.969 358.034ZM502.534 345.306L495.896 319.189L495.992 319.07L495.825 318.903L495.658 318.258L495.355 318.632L488.814 315.546L488.439 315.363L493.382 309.325L492.92 307.503L501.849 311.266L510.755 348.066L511.025 349.196L502.534 345.306ZM511.789 349.108L502.581 311.059L521.554 287.989L534.781 271.88L541.513 310.303L511.789 349.108Z" stroke="url(#paint1_linear_111_5624)" stroke-width="4.85411" mask="url(#path-2-inside-1_111_5624)"/>
<path d="M600.419 150.18C600.419 146.793 597.673 144.047 594.286 144.047C590.898 144.047 588.152 146.793 588.152 150.18C588.152 153.567 590.898 156.313 594.286 156.313C597.673 156.313 600.419 153.567 600.419 150.18ZM594.286 149.03L367.151 149.03L367.151 151.33L594.286 151.33L594.286 149.03Z" fill="url(#paint2_linear_111_5624)"/>
<path d="M278.232 431.85C278.232 426.744 274.093 422.604 268.986 422.604C263.88 422.604 259.74 426.744 259.74 431.85C259.74 436.956 263.88 441.096 268.986 441.096C274.093 441.096 278.232 436.956 278.232 431.85ZM268.986 430.116L149.787 430.116L149.787 433.584L268.986 433.584L268.986 430.116Z" fill="url(#paint3_linear_111_5624)"/>
<path d="M680.353 166.995C680.353 163.608 677.607 160.862 674.22 160.862C670.832 160.862 668.086 163.608 668.086 166.995C668.086 170.383 670.832 173.129 674.22 173.129C677.607 173.129 680.353 170.383 680.353 166.995ZM674.22 165.845L447.085 165.845L447.085 168.145L674.22 168.145L674.22 165.845Z" fill="url(#paint4_linear_111_5624)"/>
<g filter="url(#filter0_b_111_5624)">
<rect x="341.909" y="316.94" width="246.764" height="148.56" rx="8.05" fill="white" fill-opacity="0.04"/>
<rect x="341.909" y="316.94" width="246.764" height="148.56" rx="8.05" fill="url(#paint5_radial_111_5624)" fill-opacity="0.2"/>
<rect x="342.352" y="317.384" width="245.876" height="147.673" rx="7.60622" stroke="url(#paint6_linear_111_5624)" stroke-width="0.887552"/>
<path d="M370.689 334.456C370.689 336.795 368.791 338.692 366.45 338.692C364.108 338.692 362.21 336.795 362.21 334.456C362.21 332.118 364.108 330.221 366.45 330.221C368.791 330.221 370.689 332.118 370.689 334.456Z" fill="white" fill-opacity="0.3"/>
<path d="M370.689 334.456C370.689 336.795 368.791 338.692 366.45 338.692C364.108 338.692 362.21 336.795 362.21 334.456C362.21 332.118 364.108 330.221 366.45 330.221C368.791 330.221 370.689 332.118 370.689 334.456Z" fill="url(#paint7_radial_111_5624)" fill-opacity="0.2"/>
<path d="M370.689 334.456C370.689 336.795 368.791 338.692 366.45 338.692C364.108 338.692 362.21 336.795 362.21 334.456C362.21 332.118 364.108 330.221 366.45 330.221C368.791 330.221 370.689 332.118 370.689 334.456Z" stroke="url(#paint8_linear_111_5624)" stroke-width="1.33797"/>
<path d="M541.775 446.564C541.775 448.903 539.878 450.8 537.536 450.8C535.194 450.8 533.297 448.903 533.297 446.564C533.297 444.226 535.194 442.329 537.536 442.329C539.878 442.329 541.775 444.226 541.775 446.564Z" fill="white" fill-opacity="0.3"/>
<path d="M541.775 446.564C541.775 448.903 539.878 450.8 537.536 450.8C535.194 450.8 533.297 448.903 533.297 446.564C533.297 444.226 535.194 442.329 537.536 442.329C539.878 442.329 541.775 444.226 541.775 446.564Z" fill="url(#paint9_radial_111_5624)" fill-opacity="0.2"/>
<path d="M541.775 446.564C541.775 448.903 539.878 450.8 537.536 450.8C535.194 450.8 533.297 448.903 533.297 446.564C533.297 444.226 535.194 442.329 537.536 442.329C539.878 442.329 541.775 444.226 541.775 446.564Z" stroke="url(#paint10_linear_111_5624)" stroke-width="1.33797"/>
<path d="M384.712 334.456C384.712 336.795 382.815 338.692 380.473 338.692C378.131 338.692 376.234 336.795 376.234 334.456C376.234 332.118 378.131 330.221 380.473 330.221C382.815 330.221 384.712 332.118 384.712 334.456Z" fill="white" fill-opacity="0.3"/>
<path d="M384.712 334.456C384.712 336.795 382.815 338.692 380.473 338.692C378.131 338.692 376.234 336.795 376.234 334.456C376.234 332.118 378.131 330.221 380.473 330.221C382.815 330.221 384.712 332.118 384.712 334.456Z" fill="url(#paint11_radial_111_5624)" fill-opacity="0.2"/>
<path d="M384.712 334.456C384.712 336.795 382.815 338.692 380.473 338.692C378.131 338.692 376.234 336.795 376.234 334.456C376.234 332.118 378.131 330.221 380.473 330.221C382.815 330.221 384.712 332.118 384.712 334.456Z" stroke="url(#paint12_linear_111_5624)" stroke-width="1.33797"/>
<path d="M555.799 446.564C555.799 448.903 553.901 450.8 551.56 450.8C549.218 450.8 547.32 448.903 547.32 446.564C547.32 444.226 549.218 442.329 551.56 442.329C553.901 442.329 555.799 444.226 555.799 446.564Z" fill="white" fill-opacity="0.3"/>
<path d="M555.799 446.564C555.799 448.903 553.901 450.8 551.56 450.8C549.218 450.8 547.32 448.903 547.32 446.564C547.32 444.226 549.218 442.329 551.56 442.329C553.901 442.329 555.799 444.226 555.799 446.564Z" fill="url(#paint13_radial_111_5624)" fill-opacity="0.2"/>
<path d="M555.799 446.564C555.799 448.903 553.901 450.8 551.56 450.8C549.218 450.8 547.32 448.903 547.32 446.564C547.32 444.226 549.218 442.329 551.56 442.329C553.901 442.329 555.799 444.226 555.799 446.564Z" stroke="url(#paint14_linear_111_5624)" stroke-width="1.33797"/>
<path d="M398.736 334.456C398.736 336.795 396.838 338.692 394.497 338.692C392.155 338.692 390.257 336.795 390.257 334.456C390.257 332.118 392.155 330.221 394.497 330.221C396.838 330.221 398.736 332.118 398.736 334.456Z" fill="white" fill-opacity="0.3"/>
<path d="M398.736 334.456C398.736 336.795 396.838 338.692 394.497 338.692C392.155 338.692 390.257 336.795 390.257 334.456C390.257 332.118 392.155 330.221 394.497 330.221C396.838 330.221 398.736 332.118 398.736 334.456Z" fill="url(#paint15_radial_111_5624)" fill-opacity="0.2"/>
<path d="M398.736 334.456C398.736 336.795 396.838 338.692 394.497 338.692C392.155 338.692 390.257 336.795 390.257 334.456C390.257 332.118 392.155 330.221 394.497 330.221C396.838 330.221 398.736 332.118 398.736 334.456Z" stroke="url(#paint16_linear_111_5624)" stroke-width="1.33797"/>
<path d="M569.822 446.564C569.822 448.903 567.925 450.8 565.583 450.8C563.241 450.8 561.344 448.903 561.344 446.564C561.344 444.226 563.241 442.329 565.583 442.329C567.925 442.329 569.822 444.226 569.822 446.564Z" fill="white" fill-opacity="0.3"/>
<path d="M569.822 446.564C569.822 448.903 567.925 450.8 565.583 450.8C563.241 450.8 561.344 448.903 561.344 446.564C561.344 444.226 563.241 442.329 565.583 442.329C567.925 442.329 569.822 444.226 569.822 446.564Z" fill="url(#paint17_radial_111_5624)" fill-opacity="0.2"/>
<path d="M569.822 446.564C569.822 448.903 567.925 450.8 565.583 450.8C563.241 450.8 561.344 448.903 561.344 446.564C561.344 444.226 563.241 442.329 565.583 442.329C567.925 442.329 569.822 444.226 569.822 446.564Z" stroke="url(#paint18_linear_111_5624)" stroke-width="1.33797"/>
<path fill-rule="evenodd" clip-rule="evenodd" d="M449.517 364.791C449.504 364.791 449.492 364.792 449.479 364.792C449.467 364.792 449.454 364.791 449.442 364.791H441.681V371.363C441.762 371.564 441.807 371.784 441.807 372.014C441.807 372.244 441.762 372.464 441.681 372.665V381.172C441.762 381.373 441.807 381.593 441.807 381.823C441.807 382.053 441.762 382.273 441.681 382.474V390.982C441.762 391.183 441.807 391.402 441.807 391.633C441.807 391.863 441.762 392.083 441.681 392.284V400.792C441.762 400.993 441.807 401.212 441.807 401.443C441.807 401.673 441.762 401.893 441.681 402.093V410.601C441.762 410.802 441.807 411.021 441.807 411.252C441.807 411.482 441.762 411.701 441.681 411.902V418.473H495.403V364.791H487.643C487.631 364.791 487.618 364.792 487.606 364.792L487.594 364.792L487.568 364.791H478.112C478.099 364.791 478.087 364.792 478.074 364.792C478.061 364.792 478.049 364.791 478.036 364.791H468.58L468.558 364.792L468.543 364.792L468.527 364.792L468.505 364.791H459.048C459.035 364.791 459.023 364.792 459.01 364.792C458.998 364.792 458.985 364.791 458.973 364.791H449.517ZM438.214 403.176V409.518H379.773C378.815 409.518 378.039 410.294 378.039 411.252C378.039 412.209 378.815 412.985 379.773 412.985H438.214V420.206C438.214 421.164 438.99 421.94 439.947 421.94H447.746V429.891C447.746 430.848 448.522 431.624 449.479 431.624C450.437 431.624 451.213 430.848 451.213 429.891V421.94H457.277V429.891C457.277 430.848 458.053 431.624 459.01 431.624C459.968 431.624 460.744 430.848 460.744 429.891V421.94H466.809V429.891C466.809 430.848 467.585 431.624 468.543 431.624C469.5 431.624 470.276 430.848 470.276 429.891V421.94H476.34V429.891C476.34 430.848 477.117 431.624 478.074 431.624C479.031 431.624 479.808 430.848 479.808 429.891V421.94H485.872V429.891C485.872 430.848 486.648 431.624 487.606 431.624C488.563 431.624 489.339 430.848 489.339 429.891V421.94H497.137C498.094 421.94 498.87 421.164 498.87 420.206V412.564H550.859C551.817 412.564 552.593 411.787 552.593 410.83C552.593 409.873 551.817 409.096 550.859 409.096H498.87V402.754H550.859C551.817 402.754 552.593 401.978 552.593 401.021C552.593 400.063 551.817 399.287 550.859 399.287H498.87V392.945H550.859C551.817 392.945 552.593 392.169 552.593 391.212C552.593 390.254 551.817 389.478 550.859 389.478H498.87V383.135H550.859C551.817 383.135 552.593 382.359 552.593 381.402C552.593 380.444 551.817 379.668 550.859 379.668H498.87V373.326H550.859C551.817 373.326 552.593 372.55 552.593 371.592C552.593 370.635 551.817 369.859 550.859 369.859H498.87V363.058C498.87 362.1 498.094 361.324 497.137 361.324H489.339V353.374C489.339 352.417 488.563 351.641 487.606 351.641C486.648 351.641 485.872 352.417 485.872 353.374V361.324H479.808V353.374C479.808 352.417 479.031 351.641 478.074 351.641C477.117 351.641 476.34 352.417 476.34 353.374V361.324H470.276V353.374C470.276 352.417 469.5 351.641 468.543 351.641C467.585 351.641 466.809 352.417 466.809 353.374V361.324H460.744V353.374C460.744 352.417 459.968 351.641 459.01 351.641C458.053 351.641 457.277 352.417 457.277 353.374V361.324H451.213V353.374C451.213 352.417 450.437 351.641 449.479 351.641C448.522 351.641 447.746 352.417 447.746 353.374V361.324H439.947C438.99 361.324 438.214 362.1 438.214 363.058V370.281H379.773C378.815 370.281 378.039 371.057 378.039 372.014C378.039 372.972 378.815 373.748 379.773 373.748H438.214V380.09H379.773C378.815 380.09 378.039 380.866 378.039 381.823C378.039 382.781 378.815 383.557 379.773 383.557H438.214V389.899H379.773C378.815 389.899 378.039 390.675 378.039 391.633C378.039 392.59 378.815 393.366 379.773 393.366H438.214V399.709H379.773C378.815 399.709 378.039 400.485 378.039 401.443C378.039 402.4 378.815 403.176 379.773 403.176H438.214ZM449.479 412.415C448.521 412.415 447.745 411.639 447.745 410.682V372.583C447.745 371.625 448.521 370.849 449.479 370.849H487.605C488.562 370.849 489.339 371.625 489.339 372.583V382.078L489.339 382.108L489.339 382.138V410.682C489.339 411.639 488.562 412.415 487.605 412.415H478.074H468.554L468.542 412.415L468.529 412.415H449.479ZM485.871 380.374H478.074C477.116 380.374 476.34 381.151 476.34 382.108C476.34 383.065 477.116 383.842 478.074 383.842H485.871V408.948H479.807V401.157C479.807 400.199 479.031 399.423 478.074 399.423C477.116 399.423 476.34 400.199 476.34 401.157V408.948H470.275V397.466L478.848 393.183C479.705 392.755 480.052 391.714 479.624 390.857C479.196 390.001 478.155 389.653 477.298 390.081L467.767 394.844C467.179 395.137 466.808 395.738 466.808 396.395V408.948H451.212V402.891H459.011C459.968 402.891 460.744 402.115 460.744 401.157C460.744 400.2 459.968 399.424 459.011 399.424H451.212V374.316H457.277V382.108C457.277 383.066 458.053 383.842 459.01 383.842C459.968 383.842 460.744 383.066 460.744 382.108V374.316H466.808V385.798L458.235 390.082C457.379 390.51 457.032 391.551 457.459 392.407C457.887 393.264 458.929 393.611 459.785 393.183L469.317 388.421C469.904 388.127 470.275 387.527 470.275 386.87V374.316H485.871V380.374Z" fill="url(#paint19_radial_111_5624)"/>
</g>
<path d="M681.194 291.429C681.199 308.315 673.176 324.475 658.509 339.254C643.839 354.036 622.565 367.388 596.206 378.62C543.491 401.082 470.601 414.996 390.039 414.996C309.477 414.996 236.578 401.082 183.849 378.62C157.483 367.388 136.201 354.036 121.521 339.254C106.845 324.475 98.8113 308.315 98.806 291.429C98.8007 274.543 106.824 258.383 121.491 243.605C136.161 228.822 157.435 215.47 183.794 204.239C236.508 181.776 309.399 167.862 389.961 167.862C470.523 167.862 543.422 181.776 596.151 204.239C622.517 215.47 643.799 228.822 658.479 243.605C673.155 258.383 681.188 274.543 681.194 291.429Z" stroke="url(#paint20_linear_111_5624)" stroke-width="1.73361"/>
<ellipse cx="580.27" cy="244.051" rx="47.6702" ry="47.6514" fill="url(#paint21_radial_111_5624)"/>
<g filter="url(#filter1_b_111_5624)">
<rect x="252.158" y="273.498" width="118.534" height="71.5057" rx="4.6" fill="white" fill-opacity="0.04"/>
<rect x="252.158" y="273.498" width="118.534" height="71.5057" rx="4.6" fill="url(#paint22_radial_111_5624)" fill-opacity="0.2"/>
<rect x="252.602" y="273.942" width="117.646" height="70.6182" rx="4.15622" stroke="url(#paint23_linear_111_5624)" stroke-width="0.887552"/>
<line opacity="0.8" x1="263.185" y1="288.046" x2="305.478" y2="288.046" stroke="white" stroke-width="1.73361" stroke-linecap="round"/>
<line opacity="0.8" x1="269.853" y1="295.053" x2="320.613" y2="295.053" stroke="white" stroke-width="1.73361" stroke-linecap="round"/>
<line opacity="0.8" x1="279.669" y1="316.073" x2="330.429" y2="316.073" stroke="white" stroke-width="1.73361" stroke-linecap="round"/>
<line opacity="0.8" x1="269.853" y1="303.566" x2="301.986" y2="303.566" stroke="white" stroke-width="1.73361" stroke-linecap="round"/>
<line opacity="0.8" x1="279.669" y1="324.586" x2="311.802" y2="324.586" stroke="white" stroke-width="1.73361" stroke-linecap="round"/>
<line opacity="0.8" x1="269.853" y1="310.376" x2="305.372" y2="310.376" stroke="white" stroke-width="1.73361" stroke-linecap="round"/>
<line opacity="0.8" x1="279.669" y1="331.396" x2="315.189" y2="331.396" stroke="white" stroke-width="1.73361" stroke-linecap="round"/>
<line opacity="0.8" x1="279.669" y1="338.495" x2="315.189" y2="338.495" stroke="white" stroke-width="1.73361" stroke-linecap="round"/>
<path opacity="0.8" d="M352.524 290.315L358.129 295.915L352.515 301.525" stroke="white" stroke-width="2.08033" stroke-linecap="round" stroke-linejoin="round"/>
<path opacity="0.8" d="M347.222 290.315L341.617 295.915L347.231 301.525" stroke="white" stroke-width="2.08033" stroke-linecap="round" stroke-linejoin="round"/>
</g>
<path style="mix-blend-mode:color-dodge" d="M293.729 169.799C309.215 169.799 321.567 182.347 321.316 197.825C321.065 213.304 308.307 225.852 292.821 225.852C277.334 225.852 264.983 213.304 265.233 197.825C265.484 182.347 278.242 169.799 293.729 169.799Z" fill="url(#paint24_radial_111_5624)"/>
<path style="mix-blend-mode:color-dodge" d="M412.929 210.437C428.416 210.437 440.767 222.985 440.516 238.464C440.265 253.943 427.508 266.49 412.021 266.49C396.534 266.49 384.183 253.943 384.433 238.464C384.684 222.985 397.442 210.437 412.929 210.437Z" fill="url(#paint25_radial_111_5624)"/>
<path style="mix-blend-mode:color-dodge" d="M567.187 288.912C582.674 288.912 595.025 301.46 594.774 316.939C594.524 332.418 581.766 344.966 566.279 344.966C550.792 344.966 538.441 332.418 538.692 316.939C538.942 301.46 551.7 288.912 567.187 288.912Z" fill="url(#paint26_radial_111_5624)"/>
<path style="mix-blend-mode:color-dodge" d="M237.634 360.381C253.121 360.381 265.472 372.929 265.222 388.408C264.971 403.886 252.213 416.434 236.726 416.434C221.24 416.434 208.888 403.886 209.139 388.408C209.39 372.929 222.147 360.381 237.634 360.381Z" fill="url(#paint27_radial_111_5624)"/>
<path style="mix-blend-mode:color-dodge" d="M651.328 283.308C666.814 283.308 679.166 295.855 678.915 311.334C678.664 326.813 665.907 339.361 650.42 339.361C634.933 339.361 622.582 326.813 622.832 311.334C623.083 295.855 635.841 283.308 651.328 283.308Z" fill="url(#paint28_radial_111_5624)"/>
<path style="mix-blend-mode:color-dodge" d="M152.092 185.214C167.579 185.214 179.93 197.762 179.679 213.24C179.428 228.719 166.671 241.267 151.184 241.267C135.697 241.267 123.346 228.719 123.597 213.24C123.847 197.762 136.605 185.214 152.092 185.214Z" fill="url(#paint29_radial_111_5624)"/>
<defs>
<filter id="filter0_b_111_5624" x="289.469" y="264.5" width="351.644" height="253.44" filterUnits="userSpaceOnUse" color-interpolation-filters="sRGB">
<feFlood flood-opacity="0" result="BackgroundImageFix"/>
<feGaussianBlur in="BackgroundImageFix" stdDeviation="26.22"/>
<feComposite in2="SourceAlpha" operator="in" result="effect1_backgroundBlur_111_5624"/>
<feBlend mode="normal" in="SourceGraphic" in2="effect1_backgroundBlur_111_5624" result="shape"/>
</filter>
<filter id="filter1_b_111_5624" x="199.718" y="221.058" width="223.414" height="176.386" filterUnits="userSpaceOnUse" color-interpolation-filters="sRGB">
<feFlood flood-opacity="0" result="BackgroundImageFix"/>
<feGaussianBlur in="BackgroundImageFix" stdDeviation="26.22"/>
<feComposite in2="SourceAlpha" operator="in" result="effect1_backgroundBlur_111_5624"/>
<feBlend mode="normal" in="SourceGraphic" in2="effect1_backgroundBlur_111_5624" result="shape"/>
</filter>
<linearGradient id="paint0_linear_111_5624" x1="271.382" y1="137.282" x2="380.842" y2="461.643" gradientUnits="userSpaceOnUse">
<stop stop-color="#0C1E3F"/>
<stop offset="1" stop-color="#18366A" stop-opacity="0"/>
</linearGradient>
<linearGradient id="paint1_linear_111_5624" x1="288.036" y1="142.783" x2="408.496" y2="468.095" gradientUnits="userSpaceOnUse">
<stop stop-color="#03D2FF"/>
<stop offset="1" stop-color="#527FF1" stop-opacity="0"/>
</linearGradient>
<linearGradient id="paint2_linear_111_5624" x1="594.286" y1="149.179" x2="367.151" y2="149.179" gradientUnits="userSpaceOnUse">
<stop stop-color="#EF3BFF"/>
<stop offset="1" stop-color="#9E4CB2" stop-opacity="0"/>
</linearGradient>
<linearGradient id="paint3_linear_111_5624" x1="268.986" y1="430.849" x2="149.787" y2="430.849" gradientUnits="userSpaceOnUse">
<stop stop-color="#10E2FF"/>
<stop offset="1" stop-color="#4C8AB2" stop-opacity="0"/>
</linearGradient>
<linearGradient id="paint4_linear_111_5624" x1="674.22" y1="165.995" x2="447.085" y2="165.995" gradientUnits="userSpaceOnUse">
<stop stop-color="#EF3BFF"/>
<stop offset="1" stop-color="#9E4CB2" stop-opacity="0"/>
</linearGradient>
<radialGradient id="paint5_radial_111_5624" cx="0" cy="0" r="1" gradientUnits="userSpaceOnUse" gradientTransform="translate(341.909 300.004) rotate(49.664) scale(129.02 204.939)">
<stop stop-color="#3078FF"/>
<stop offset="1" stop-color="#3078FF" stop-opacity="0.01"/>
</radialGradient>
<linearGradient id="paint6_linear_111_5624" x1="333.193" y1="290.034" x2="510.874" y2="429.288" gradientUnits="userSpaceOnUse">
<stop stop-color="white" stop-opacity="0.25"/>
<stop offset="1" stop-color="white" stop-opacity="0"/>
</linearGradient>
<radialGradient id="paint7_radial_111_5624" cx="0" cy="0" r="1" gradientUnits="userSpaceOnUse" gradientTransform="translate(361.542 328.501) rotate(61.4238) scale(6.94525 9.39241)">
<stop stop-color="#3078FF"/>
<stop offset="1" stop-color="#3078FF" stop-opacity="0.01"/>
</radialGradient>
<linearGradient id="paint8_linear_111_5624" x1="361.195" y1="327.883" x2="370.303" y2="332.462" gradientUnits="userSpaceOnUse">
<stop stop-color="white" stop-opacity="0.25"/>
<stop offset="1" stop-color="white" stop-opacity="0"/>
</linearGradient>
<radialGradient id="paint9_radial_111_5624" cx="0" cy="0" r="1" gradientUnits="userSpaceOnUse" gradientTransform="translate(532.628 440.609) rotate(61.4238) scale(6.94525 9.39241)">
<stop stop-color="#3078FF"/>
<stop offset="1" stop-color="#3078FF" stop-opacity="0.01"/>
</radialGradient>
<linearGradient id="paint10_linear_111_5624" x1="532.281" y1="439.991" x2="541.389" y2="444.57" gradientUnits="userSpaceOnUse">
<stop stop-color="white" stop-opacity="0.25"/>
<stop offset="1" stop-color="white" stop-opacity="0"/>
</linearGradient>
<radialGradient id="paint11_radial_111_5624" cx="0" cy="0" r="1" gradientUnits="userSpaceOnUse" gradientTransform="translate(375.565 328.501) rotate(61.4238) scale(6.94525 9.39241)">
<stop stop-color="#3078FF"/>
<stop offset="1" stop-color="#3078FF" stop-opacity="0.01"/>
</radialGradient>
<linearGradient id="paint12_linear_111_5624" x1="375.218" y1="327.883" x2="384.326" y2="332.462" gradientUnits="userSpaceOnUse">
<stop stop-color="white" stop-opacity="0.25"/>
<stop offset="1" stop-color="white" stop-opacity="0"/>
</linearGradient>
<radialGradient id="paint13_radial_111_5624" cx="0" cy="0" r="1" gradientUnits="userSpaceOnUse" gradientTransform="translate(546.651 440.609) rotate(61.4238) scale(6.94525 9.39241)">
<stop stop-color="#3078FF"/>
<stop offset="1" stop-color="#3078FF" stop-opacity="0.01"/>
</radialGradient>
<linearGradient id="paint14_linear_111_5624" x1="546.305" y1="439.991" x2="555.413" y2="444.57" gradientUnits="userSpaceOnUse">
<stop stop-color="white" stop-opacity="0.25"/>
<stop offset="1" stop-color="white" stop-opacity="0"/>
</linearGradient>
<radialGradient id="paint15_radial_111_5624" cx="0" cy="0" r="1" gradientUnits="userSpaceOnUse" gradientTransform="translate(389.588 328.501) rotate(61.4238) scale(6.94525 9.39241)">
<stop stop-color="#3078FF"/>
<stop offset="1" stop-color="#3078FF" stop-opacity="0.01"/>
</radialGradient>
<linearGradient id="paint16_linear_111_5624" x1="389.242" y1="327.883" x2="398.35" y2="332.462" gradientUnits="userSpaceOnUse">
<stop stop-color="white" stop-opacity="0.25"/>
<stop offset="1" stop-color="white" stop-opacity="0"/>
</linearGradient>
<radialGradient id="paint17_radial_111_5624" cx="0" cy="0" r="1" gradientUnits="userSpaceOnUse" gradientTransform="translate(560.675 440.609) rotate(61.4238) scale(6.94525 9.39241)">
<stop stop-color="#3078FF"/>
<stop offset="1" stop-color="#3078FF" stop-opacity="0.01"/>
</radialGradient>
<linearGradient id="paint18_linear_111_5624" x1="560.328" y1="439.991" x2="569.436" y2="444.57" gradientUnits="userSpaceOnUse">
<stop stop-color="white" stop-opacity="0.25"/>
<stop offset="1" stop-color="white" stop-opacity="0"/>
</linearGradient>
<radialGradient id="paint19_radial_111_5624" cx="0" cy="0" r="1" gradientUnits="userSpaceOnUse" gradientTransform="translate(468.555 391.632) rotate(87.8472) scale(74.9468 74.6611)">
<stop stop-color="white"/>
<stop offset="1" stop-color="white" stop-opacity="0"/>
</radialGradient>
<linearGradient id="paint20_linear_111_5624" x1="342.091" y1="214.824" x2="291.246" y2="426.121" gradientUnits="userSpaceOnUse">
<stop offset="0.0738843" stop-color="#527FF1" stop-opacity="0"/>
<stop offset="1" stop-color="#03E1FF" stop-opacity="0.85"/>
</linearGradient>
<radialGradient id="paint21_radial_111_5624" cx="0" cy="0" r="1" gradientUnits="userSpaceOnUse" gradientTransform="translate(610.838 210.586) rotate(128.066) scale(91.4803 91.489)">
<stop stop-color="#FB4EFF"/>
<stop offset="0.5249" stop-color="#9D36CE"/>
<stop offset="0.796563" stop-color="#482C4E"/>
<stop offset="1" stop-color="#150F17"/>
</radialGradient>
<radialGradient id="paint22_radial_111_5624" cx="0" cy="0" r="1" gradientUnits="userSpaceOnUse" gradientTransform="translate(252.158 265.347) rotate(49.7211) scale(62.0479 98.5264)">
<stop stop-color="#3078FF"/>
<stop offset="1" stop-color="#3078FF" stop-opacity="0.01"/>
</radialGradient>
<linearGradient id="paint23_linear_111_5624" x1="247.972" y1="260.548" x2="333.453" y2="327.406" gradientUnits="userSpaceOnUse">
<stop stop-color="white" stop-opacity="0.25"/>
<stop offset="1" stop-color="white" stop-opacity="0"/>
</linearGradient>
<radialGradient id="paint24_radial_111_5624" cx="0" cy="0" r="1" gradientUnits="userSpaceOnUse" gradientTransform="translate(293.275 197.825) scale(28.0413 28.0265)">
<stop offset="0.09" stop-color="#A6A8AB"/>
<stop offset="0.15" stop-color="#838587"/>
<stop offset="0.22" stop-color="#606163"/>
<stop offset="0.3" stop-color="#424344"/>
<stop offset="0.39" stop-color="#2A2A2B"/>
<stop offset="0.48" stop-color="#171718"/>
<stop offset="0.6" stop-color="#0A0A0A"/>
<stop offset="0.74" stop-color="#020202"/>
<stop offset="1"/>
</radialGradient>
<radialGradient id="paint25_radial_111_5624" cx="0" cy="0" r="1" gradientUnits="userSpaceOnUse" gradientTransform="translate(412.475 238.464) scale(28.0413 28.0265)">
<stop offset="0.09" stop-color="#A6A8AB"/>
<stop offset="0.15" stop-color="#838587"/>
<stop offset="0.22" stop-color="#606163"/>
<stop offset="0.3" stop-color="#424344"/>
<stop offset="0.39" stop-color="#2A2A2B"/>
<stop offset="0.48" stop-color="#171718"/>
<stop offset="0.6" stop-color="#0A0A0A"/>
<stop offset="0.74" stop-color="#020202"/>
<stop offset="1"/>
</radialGradient>
<radialGradient id="paint26_radial_111_5624" cx="0" cy="0" r="1" gradientUnits="userSpaceOnUse" gradientTransform="translate(566.733 316.939) scale(28.0413 28.0265)">
<stop offset="0.09" stop-color="#A6A8AB"/>
<stop offset="0.15" stop-color="#838587"/>
<stop offset="0.22" stop-color="#606163"/>
<stop offset="0.3" stop-color="#424344"/>
<stop offset="0.39" stop-color="#2A2A2B"/>
<stop offset="0.48" stop-color="#171718"/>
<stop offset="0.6" stop-color="#0A0A0A"/>
<stop offset="0.74" stop-color="#020202"/>
<stop offset="1"/>
</radialGradient>
<radialGradient id="paint27_radial_111_5624" cx="0" cy="0" r="1" gradientUnits="userSpaceOnUse" gradientTransform="translate(237.18 388.408) scale(28.0413 28.0265)">
<stop offset="0.09" stop-color="#A6A8AB"/>
<stop offset="0.15" stop-color="#838587"/>
<stop offset="0.22" stop-color="#606163"/>
<stop offset="0.3" stop-color="#424344"/>
<stop offset="0.39" stop-color="#2A2A2B"/>
<stop offset="0.48" stop-color="#171718"/>
<stop offset="0.6" stop-color="#0A0A0A"/>
<stop offset="0.74" stop-color="#020202"/>
<stop offset="1"/>
</radialGradient>
<radialGradient id="paint28_radial_111_5624" cx="0" cy="0" r="1" gradientUnits="userSpaceOnUse" gradientTransform="translate(650.874 311.334) scale(28.0413 28.0265)">
<stop offset="0.09" stop-color="#A6A8AB"/>
<stop offset="0.15" stop-color="#838587"/>
<stop offset="0.22" stop-color="#606163"/>
<stop offset="0.3" stop-color="#424344"/>
<stop offset="0.39" stop-color="#2A2A2B"/>
<stop offset="0.48" stop-color="#171718"/>
<stop offset="0.6" stop-color="#0A0A0A"/>
<stop offset="0.74" stop-color="#020202"/>
<stop offset="1"/>
</radialGradient>
<radialGradient id="paint29_radial_111_5624" cx="0" cy="0" r="1" gradientUnits="userSpaceOnUse" gradientTransform="translate(151.638 213.24) scale(28.0413 28.0265)">
<stop offset="0.09" stop-color="#A6A8AB"/>
<stop offset="0.15" stop-color="#838587"/>
<stop offset="0.22" stop-color="#606163"/>
<stop offset="0.3" stop-color="#424344"/>
<stop offset="0.39" stop-color="#2A2A2B"/>
<stop offset="0.48" stop-color="#171718"/>
<stop offset="0.6" stop-color="#0A0A0A"/>
<stop offset="0.74" stop-color="#020202"/>
<stop offset="1"/>
</radialGradient>
</defs>
</svg>
