<svg width="64" height="64" viewBox="0 0 64 64" fill="none" xmlns="http://www.w3.org/2000/svg">
<g clip-path="url(#clip0_248_594)">
<path d="M43.4371 42.9189C43.0282 42.919 42.6284 42.7977 42.2883 42.5703C41.9482 42.343 41.6831 42.0198 41.5265 41.6417C41.37 41.2635 41.3289 40.8474 41.4086 40.4459C41.4883 40.0445 41.6852 39.6757 41.9743 39.3862C42.2635 39.0967 42.6319 38.8995 43.033 38.8196C43.4341 38.7396 43.8498 38.7805 44.2277 38.9371C44.6056 39.0937 44.9285 39.3589 45.1558 39.6992C45.3831 40.0395 45.5044 40.4396 45.5045 40.8489C45.5039 41.3976 45.2859 41.9236 44.8984 42.3117C44.5108 42.6997 43.9853 42.9181 43.4371 42.9189ZM20.5838 42.9189C20.1748 42.919 19.775 42.7977 19.4349 42.5703C19.0948 42.343 18.8297 42.0198 18.6732 41.6417C18.5166 41.2635 18.4755 40.8474 18.5553 40.4459C18.635 40.0445 18.8318 39.6757 19.121 39.3862C19.4101 39.0967 19.7785 38.8995 20.1796 38.8196C20.5807 38.7396 20.9964 38.7805 21.3743 38.9371C21.7522 39.0937 22.0752 39.3589 22.3024 39.6992C22.5297 40.0395 22.6511 40.4396 22.6511 40.8489C22.6506 41.3976 22.4327 41.9237 22.0451 42.3118C21.6575 42.6998 21.132 42.9182 20.5838 42.9189ZM44.1786 30.4534L48.3106 23.2904C48.3671 23.1926 48.4039 23.0846 48.4187 22.9725C48.4335 22.8605 48.4261 22.7466 48.3969 22.6374C48.3677 22.5283 48.3174 22.4259 48.2487 22.3362C48.18 22.2465 48.0943 22.1712 47.9966 22.1147C47.8988 22.0581 47.7909 22.0214 47.679 22.0065C47.567 21.9917 47.4533 21.9991 47.3442 22.0283C47.2351 22.0575 47.1328 22.1079 47.0432 22.1767C46.9536 22.2454 46.8784 22.3311 46.8219 22.429L42.6376 29.6825C39.438 28.2208 35.8444 27.407 32.0101 27.407C28.1757 27.407 24.5825 28.222 21.3829 29.6825L17.199 22.429C17.1426 22.3311 17.0675 22.2453 16.9779 22.1765C16.8883 22.1077 16.7861 22.0573 16.6771 22.028C16.568 21.9987 16.4543 21.9913 16.3424 22.006C16.2304 22.0207 16.1225 22.0574 16.0247 22.1139C15.9269 22.1704 15.8412 22.2456 15.7725 22.3352C15.7037 22.4249 15.6533 22.5272 15.6241 22.6363C15.5948 22.7455 15.5874 22.8593 15.6021 22.9713C15.6168 23.0834 15.6534 23.1914 15.7099 23.2893L19.8423 30.4534C12.7467 34.3161 7.8935 41.5056 7.18359 50H56.8373C56.1266 41.5056 51.2738 34.3161 44.1786 30.4534Z" fill="white"/>
</g>
<defs>
<clipPath id="clip0_248_594">
<rect width="49.6533" height="28" fill="white" transform="translate(7.17188 22)"/>
</clipPath>
</defs>
</svg>
