<svg width="64" height="64" viewBox="0 0 64 64" fill="none" xmlns="http://www.w3.org/2000/svg">
<path d="M31.0094 36.0064H12V17H31.0094V36.0064Z" fill="white"/>
<path d="M52.0003 36.0064H32.9893V17H51.9987V36.0064H52.0003Z" fill="white"/>
<path d="M31.0094 57H12V37.9936H31.0094V57Z" fill="white"/>
<path d="M52.0003 57H32.9893V37.9936H51.9987V57H52.0003Z" fill="white"/>
</svg>
