<svg width="60" height="60" viewBox="0 0 60 60" fill="none" xmlns="http://www.w3.org/2000/svg">
<path d="M44.1143 21.1046L44.9758 55H51.8761L52.7387 8.76556L44.1143 21.1046Z" fill="white"/>
<path d="M52.7384 4.99871H42.2096L25.6875 28.6383L30.9519 36.1699L52.7384 4.99871Z" fill="white"/>
<path d="M7.26074 55H17.7896L23.0551 47.4684L17.7896 39.9357L7.26074 55Z" fill="white"/>
<path d="M7.26074 21.1046L30.9517 55H41.4805L17.7896 21.1046H7.26074Z" fill="white"/>
</svg>
